<?xml version="1.0" encoding="utf-8"?>
<!-- Generator: Adobe Illustrator 17.0.0, SVG Export Plug-In . SVG Version: 6.00 Build 0)  -->
<!DOCTYPE svg PUBLIC "-//W3C//DTD SVG 1.1//EN" "http://www.w3.org/Graphics/SVG/1.1/DTD/svg11.dtd">
<svg version="1.1" id="Capa_1" xmlns="http://www.w3.org/2000/svg" xmlns:xlink="http://www.w3.org/1999/xlink" x="0px" y="0px"
	 width="1000px" height="1000px" viewBox="0 0 1000 1000" enable-background="new 0 0 1000 1000" xml:space="preserve">
<path fill="#F99DA2" d="M674.901,424.559c0-96.75-78.25-175-175-175s-175,78.25-175,175c0,131.25,175,325,175,325
	S674.901,555.809,674.901,424.559z M499.901,299.559c69,0,125,56,125,125c0,72-72,179.75-125,247c-52-66.75-125-175.75-125-247
	C374.901,355.559,430.901,299.559,499.901,299.559z"/>
<circle fill="#F99DA2" cx="499.901" cy="424.559" r="62.5"/>
</svg>
