<?xml version="1.0" encoding="utf-8"?>
<!-- Generator: Adobe Illustrator 17.0.0, SVG Export Plug-In . SVG Version: 6.00 Build 0)  -->
<!DOCTYPE svg PUBLIC "-//W3C//DTD SVG 1.1//EN" "http://www.w3.org/Graphics/SVG/1.1/DTD/svg11.dtd">
<svg version="1.1" id="Capa_1" xmlns="http://www.w3.org/2000/svg" xmlns:xlink="http://www.w3.org/1999/xlink" x="0px" y="0px"
	 width="2805.281px" height="1234.984px" viewBox="0 0 2805.281 1234.984" enable-background="new 0 0 2805.281 1234.984"
	 xml:space="preserve">
<path fill="none" stroke="#F99DA2" stroke-width="7" stroke-linecap="round" stroke-miterlimit="10" d="M794.953,340.721
	c0,0,56.345-62.381,56.345-104.64c0-31.15-25.194-56.345-56.345-56.345s-56.345,25.194-56.345,56.345
	C738.608,278.339,794.953,340.721,794.953,340.721"/>
<path fill="#FFFFFF" d="M794.953,315.607c-16.742-21.491-40.246-56.586-40.246-79.526c0-22.216,18.03-40.246,40.246-40.246
	c22.216,0,40.246,18.03,40.246,40.246C835.199,259.263,812.017,293.955,794.953,315.607"/>
<circle fill="none" stroke="#F99DA2" stroke-width="7" stroke-miterlimit="10" cx="794.953" cy="236.081" r="20.123"/>
<g>
	<g>
		<path fill="none" stroke="#F99DA2" stroke-width="5" stroke-miterlimit="10" d="M1125.109,787.548
			C808.195,715.486,795.262,504.57,794.959,377.639"/>
		<g>
			<polygon fill="#F99DA2" points="815.558,394.064 811.921,397.5 795.01,379.561 778.352,397.74 774.666,394.355 794.958,372.22 
							"/>
		</g>
	</g>
</g>
<g>
	<g>
		<path fill="none" stroke="#F99DA2" stroke-width="5" stroke-miterlimit="10" d="M395.88,1040.112
			c108.869-0.078,171.552-2.702,241.476-29.426c82.299-31.691,119.708-78.096,220.712-106.392
			c93.522-26.032,228.194-41.878,280.566-78.096"/>
		<g>
			<polygon fill="#F99DA2" points="412.524,1060.48 415.921,1056.805 397.799,1040.091 415.794,1023.236 412.37,1019.587 
				390.457,1040.119 			"/>
		</g>
	</g>
</g>
<g>
	<g>
		<path fill="none" stroke="#F99DA2" stroke-width="5" stroke-miterlimit="10" d="M1257.634,802.733
			c96.839-7.877,207.482-28.225,303.516-43.158c13.893-2.38,29.274-4.136,43.168-6.516c13.467-2.237,23.542-5.318,36.108-8.56"/>
		<g>
			<polygon fill="#F99DA2" points="1629.569,768.513 1625.345,765.831 1638.582,745.033 1616.87,733.349 1619.246,728.944 
				1645.686,743.18 			"/>
		</g>
	</g>
</g>
<path fill="none" stroke="#F99DA2" stroke-width="5" stroke-miterlimit="10" d="M1236.332,774.941
	c35.393-28.487,58.929-109.165,91.799-126.652c40.174-21.522,73.043-40.354,104.695-75.328
	c17.043-18.832,56.811-93.717,78.724-105.823c37.739-22.867,74.261-56.945,114.434-66.361"/>
<g>
	<g>
		<path fill="none" stroke="#F99DA2" stroke-width="5" stroke-miterlimit="10" d="M1749.334,352.447
			c89.36-14.568,215.575-61.324,302.814-15.588"/>
		<g>
			<polygon fill="#F99DA2" points="2028.145,348.113 2026.701,343.321 2050.312,336.231 2041.515,313.198 2046.192,311.417 
				2056.9,339.471 			"/>
		</g>
	</g>
</g>
<g>
	<g>
		<path fill="none" stroke="#F99DA2" stroke-width="5" stroke-miterlimit="10" d="M2100.39,368.525
			c-1.168,37.81,18.15,75.577,46.481,112.394c46.173,54.211,128.625,88.614,270.442,123.018
			c69.26,17.723,158.308,36.488,244.057,46.913"/>
		<g>
			<polygon fill="#F99DA2" points="2080.404,385.247 2084.089,388.632 2100.744,370.455 2117.658,388.396 2121.296,384.96 
				2100.693,363.114 			"/>
		</g>
	</g>
</g>
<g>
	<g>
		<path fill="none" stroke="#F99DA2" stroke-width="5" stroke-miterlimit="10" d="M1765.307,722.598
			c43.359-4.777,84.722-16.481,128.253-20.659c82.781-11.017,167.76-9.842,250.238-12.798
			c103.855-6.189,210.137-6.232,311.112-6.474c83.247-0.823,166.493-1.645,249.598,1.311"/>
		<g>
			<polygon fill="#F99DA2" points="1784.178,740.844 1787.129,736.803 1767.203,722.286 1783.139,703.471 1779.317,700.241 
				1759.914,723.159 			"/>
		</g>
		<g>
			<polygon fill="#F99DA2" points="2687.397,704.031 2684.086,700.279 2702.586,683.985 2684.981,666.722 2688.488,663.152 
				2709.925,684.18 			"/>
		</g>
	</g>
</g>
<g>
	<g>
		<path fill="none" stroke="#F99DA2" stroke-width="5" stroke-miterlimit="10" d="M2481.248,1094.842
			c-26.034,17.68-71.918,35.546-107.848,46.447c-23.604,6.39-117.465,32.519-156.276,38.455"/>
		<g>
			<polygon fill="#F99DA2" points="2230.073,1156.682 2234.041,1159.731 2218.995,1179.26 2239.573,1192.842 2236.813,1197.016 
				2211.753,1180.471 			"/>
		</g>
	</g>
</g>
<g>
	<g>
		<path fill="none" stroke="#F99DA2" stroke-width="5" stroke-miterlimit="10" d="M312.334,1020.114
			c-36.672-21.231-99.421-31.286-114.548,14.773"/>
		<g>
			<polygon fill="#F99DA2" points="185.871,1011.967 190.56,1010.22 199.143,1033.331 221.568,1023.082 223.644,1027.635 
				196.33,1040.112 			"/>
		</g>
	</g>
</g>
<path fill="#F99DA2" d="M1419.268,1128.338c0-1.899,0.069-3.802-0.02-5.697c-0.079-1.665,0.599-2.658,2.057-3.467
	c16.202-8.988,32.374-18.028,48.553-27.056c29.267-16.329,58.543-32.641,87.781-49.022c2.185-1.224,3.972-1.219,6.168-0.023
	c19.324,10.523,38.685,20.979,58.075,31.38c1.871,1.004,2.649,2.179,2.552,4.314c-0.162,3.601-0.069,7.215-0.034,10.823
	c0.017,1.758-0.702,2.967-2.248,3.828c-45.731,25.495-91.455,51.002-137.164,76.536c-1.369,0.765-2.507,0.801-3.891,0.061
	c-19.792-10.585-39.601-21.141-59.42-31.675c-1.708-0.908-2.464-2.22-2.421-4.115
	C1419.302,1132.264,1419.268,1130.3,1419.268,1128.338z M1526.846,1119.933c0.074-0.08,0.147-0.161,0.221-0.241
	c2.866,0.757,5.718,1.576,8.607,2.228c0.762,0.172,1.769,0.063,2.445-0.311c11.677-6.452,23.321-12.963,34.968-19.47
	c0.409-0.228,0.77-0.542,1.115-0.788c-0.857-1.307-1.703-2.421-2.36-3.637c-1.322-2.447-1.229-3.902,0.766-5.785
	c2.105-1.986,4.263-4.07,6.762-5.452c4.52-2.5,9.299-4.535,13.993-6.715c3.435-1.595,6.962-3.004,10.337-4.714
	c1.443-0.731,2.606-2.016,4.131-3.236c-4.776-2.581-9.088-4.912-13.472-7.282c-6.741,9.372-15.476,15.891-26.169,19.821
	c-0.409,0.15-0.828,0.729-0.934,1.181c-1.896,8.052-7.154,13.183-14.425,16.475c-2.595,1.175-5.399,1.354-8.161,0.41
	c-4.163-1.424-5.294-4.537-2.457-7.886c2.22-2.621,5.05-4.728,7.628-7.041c0.253-0.227,0.64-0.304,1.33-0.616
	c-0.85,0.87-1.428,1.373-1.9,1.961c-1.972,2.458-4.066,4.839-5.813,7.451c-1.228,1.836-0.717,3.286,1.385,3.795
	c1.946,0.471,4.219,0.73,6.086,0.185c6.101-1.779,10.316-6.012,13.123-11.589c2.267-4.505,1.005-7.032-3.982-7.729
	c-8.678-1.213-16.538,1.167-23.608,6.187c-2.942,2.088-3.924,4.87-2.638,8.483c1.197,3.361,0.544,4.718-2.59,6.297
	c-12.474,6.285-24.902,12.668-37.476,18.748c-9.38,4.536-18.84,8.933-28.984,11.637c-3.32,0.885-6.18,2.774-8.696,5.494
	c5.208,2.771,10.268,5.481,15.357,8.137c0.363,0.189,1,0.121,1.397-0.066c8.917-4.188,17.853-8.338,26.695-12.681
	c1.944-0.955,3.73-2.433,5.25-3.999c2.048-2.11,4.406-3.076,7.256-3.131c4.003-0.078,7.73,1.083,11.421,2.46
	c0.593,0.221,1.426,0.435,1.914,0.189c2.413-1.217,4.748-2.591,7.339-4.037C1530.648,1123.002,1528.747,1121.467,1526.846,1119.933z
	 M1453.726,1136.537c2.958-1.875,5.566-3.78,8.4-5.249c2.507-1.299,5.333-1.969,7.903-3.164
	c19.876-9.243,39.727-18.541,59.579-27.836c2.956-1.384,2.994-1.439,2.004-4.616c-1.137-3.652-0.311-6.746,2.474-9.303
	c1.02-0.937,2.093-1.871,3.288-2.551c6.567-3.734,13.579-5.832,21.206-5.242c3.177,0.245,6.258,0.918,8.289,3.833
	c9.541-4.676,17.279-11.28,23.508-20.026c-4.512-2.443-8.877-4.833-13.285-7.137c-0.311-0.163-1.094,0.162-1.413,0.495
	c-2.661,2.779-6.087,4.2-9.53,5.684c-8.465,3.649-16.946,7.275-25.275,11.219c-5.036,2.385-9.62,5.599-13.536,9.645
	c-2.645,2.733-4.529,5.846-5.288,9.671c-0.263,1.329-1.119,2.745-2.118,3.678c-1.693,1.582-3.576,3.08-5.626,4.134
	c-4.544,2.337-9.148,4.611-13.894,6.49c-11.508,4.556-23.107,8.885-34.679,13.279c-7.353,2.792-13.914,6.629-18.021,13.782
	C1449.665,1134.367,1451.87,1135.546,1453.726,1136.537z M1432.879,1125.301c0.362,0.272,0.454,0.362,0.563,0.42
	c2.451,1.313,4.903,2.624,7.356,3.933c4.989,2.662,5.107,2.747,8.525-1.944c2.017-2.768,4.526-4.754,7.566-6.115
	c3.918-1.754,7.862-3.464,11.855-5.038c12.28-4.84,24.638-9.485,36.856-14.474c3.769-1.539,7.286-3.781,10.72-6.008
	c1.452-0.941,3.023-2.503,3.448-4.078c1.498-5.547,4.928-9.627,9.058-13.265c7.601-6.696,16.553-11.072,25.805-14.951
	c5.179-2.172,10.294-4.504,15.375-6.9c1.553-0.733,2.894-1.916,4.557-3.045c-4.341-2.353-8.358-4.475-12.312-6.71
	c-1.133-0.641-1.987-0.569-3.091,0.052c-12.287,6.906-24.618,13.736-36.884,20.68c-1.172,0.664-2.13,1.855-2.939,2.98
	c-1.548,2.152-2.747,4.567-4.388,6.638c-13.635,17.209-31.375,28.319-52.14,34.912c-4.934,1.567-9.86,3.178-14.715,4.972
	C1442.759,1119.33,1437.777,1122.032,1432.879,1125.301z M1620.113,1080.902c-0.699,0.353-1.092,0.534-1.469,0.743
	c-26.137,14.541-52.276,29.077-78.389,43.661c-0.739,0.413-1.399,1.251-1.736,2.044c-0.968,2.282-1.752,4.643-2.792,7.475
	c-0.693-2.315-1.206-4.031-1.772-5.922c-1.382,0.771-2.533,1.412-3.683,2.054c-14.467,8.073-28.937,16.141-43.393,24.233
	c-0.619,0.347-1.557,0.895-1.587,1.394c-0.158,2.659-0.075,5.332-0.075,8.24c0.954-0.51,1.566-0.824,2.167-1.159
	c27.113-15.128,54.225-30.257,81.337-45.386c16.621-9.275,33.245-18.542,49.843-27.859c0.652-0.366,1.432-1.178,1.479-1.83
	C1620.217,1086.137,1620.113,1083.664,1620.113,1080.902z M1516.646,1071.595c-0.144-0.141-0.289-0.283-0.433-0.424
	c-30.074,16.78-60.148,33.56-90.441,50.462c1.424,0.766,2.492,1.481,3.664,1.913c0.633,0.233,1.622,0.252,2.149-0.093
	c9.255-6.052,19.457-9.859,29.984-12.982c18.986-5.633,35.268-15.67,48.559-30.396
	C1512.51,1077.436,1514.484,1074.431,1516.646,1071.595z M1480.845,1164.878c0-2.509-0.088-4.771,0.031-7.022
	c0.077-1.451-0.383-2.233-1.712-2.936c-17.769-9.401-35.501-18.871-53.244-28.322c-0.648-0.345-1.309-0.665-2.285-1.159
	c0,2.59,0.095,4.847-0.034,7.09c-0.085,1.47,0.419,2.225,1.734,2.921c17.825,9.429,35.614,18.927,53.414,28.403
	C1479.347,1164.171,1479.965,1164.449,1480.845,1164.878z M1617.8,1077.196c-3.001-1.621-5.644-3.048-8.29-4.477
	c-2.665,3.259-6.359,4.343-9.82,5.877c-5.652,2.505-11.405,4.856-16.802,7.837c-3.26,1.8-5.983,4.607-8.818,7.109
	c-0.537,0.474-0.872,1.822-0.591,2.448c0.702,1.557,1.812,2.93,2.767,4.389C1590.214,1092.585,1603.847,1084.979,1617.8,1077.196z
	 M1521.837,1130.665c0.028-0.262,0.057-0.524,0.085-0.786c-3.789-0.502-7.571-1.277-11.371-1.385
	c-1.78-0.051-3.786,0.891-5.356,1.902c-2.956,1.902-5.462,4.565-8.528,6.221c-6.606,3.569-13.447,6.702-20.193,10.013
	c-0.58,0.285-1.161,0.567-1.977,0.965c2.642,1.41,5.072,2.619,7.406,3.991c1.032,0.607,1.78,0.473,2.752-0.073
	c11.957-6.715,23.936-13.392,35.908-20.081C1520.995,1131.191,1521.412,1130.921,1521.837,1130.665z M1537.367,1124.316
	c-1.831-0.739-3.537-1.427-5.243-2.116c-0.149,0.138-0.299,0.277-0.448,0.415c3.082,1.556,4.179,4.159,3.882,7.496
	c0.163-0.067,0.327-0.134,0.49-0.201C1536.466,1128.139,1536.883,1126.367,1537.367,1124.316z"/>
<path fill="none" stroke="#F99DA2" stroke-width="5" stroke-miterlimit="10" d="M2116.773,1209.767
	c-72.876,0.617-147.239-3.083-220.114-6.167c-22.309-1.233-44.618-3.7-66.927-5.55c-37.181-3.7-83.286-5.55-118.981-12.333
	c-44.618-8.017-84.774-24.05-126.417-34.534"/>
<g>
	<g>
		<path fill="none" stroke="#F99DA2" stroke-width="5" stroke-miterlimit="10" d="M1488.427,1053.72
			c-30.255-35.803-72.079-58.902-107.674-83.155c-34.705-25.409-69.41-41.578-106.784-56.592
			c-29.701-12.115-54.547-49.438-71.45-82.922"/>
		<g>
			<polygon fill="#F99DA2" points="1228.409,836.243 1226.739,840.96 1203.509,832.706 1196.972,856.48 1192.148,855.149 
				1200.115,826.196 			"/>
		</g>
	</g>
</g>
<g>
	<path fill="#F99DA2" stroke="#F99DA2" stroke-width="2" stroke-miterlimit="10" d="M1679.315,389.757
		c-4.706-0.307-9.449-0.348-14.107-1.003c-3.95-0.556-7.648-2.597-8.001-6.922c-0.52-6.372-4.063-10.962-7.61-15.687
		c-3.336-4.443-6.834-8.769-10.038-13.304c-3.319-4.697-5.919-9.807-6.664-15.604c-1.078-8.383,0.473-16.435,4.314-23.861
		c9.255-17.891,24.052-27.151,44.284-26.681c20.369,0.474,38.787,16.036,43.331,35.986c1.484,6.514,2.036,13.033-0.296,19.498
		c-0.123,0.342-0.23,0.689-0.363,1.027c-0.445,1.134-1.303,1.712-2.455,1.31c-1.156-0.404-1.425-1.372-1.081-2.55
		c0.507-1.739,1.17-3.469,1.394-5.249c1.077-8.552-0.813-16.607-5.088-23.945c-8.626-14.807-21.607-22.541-38.848-22.382
		c-19.941,0.184-37.902,16.064-41.207,35.772c-1.368,8.156-0.123,15.661,4.458,22.462c3.447,5.117,7.33,9.938,10.963,14.932
		c2.044,2.809,4.075,5.638,5.925,8.576c1.566,2.486,2.451,5.254,2.411,8.26c-0.022,1.665,0.738,3.038,2.272,3.585
		c2.03,0.724,4.167,1.554,6.271,1.592c7.264,0.134,14.535-0.018,21.802-0.162c1.211-0.024,2.44-0.467,3.613-0.859
		c2.318-0.774,3.523-2.312,3.476-4.898c-0.053-2.939,1.023-5.653,2.634-8.029c2.561-3.776,5.339-7.406,8.064-11.069
		c1.302-1.75,2.701-3.426,4.039-5.149c1.161-1.496,2.23-1.864,3.22-1.071c0.989,0.792,0.935,1.878-0.265,3.405
		c-2.535,3.227-5.181,6.369-7.628,9.661c-1.759,2.367-3.47,4.815-4.819,7.426c-0.873,1.691-1.279,3.714-1.498,5.633
		c-0.407,3.568-2.162,6.167-5.425,7.339c-2.545,0.914-5.32,1.359-8.029,1.6c-2.99,0.266-6.021,0.061-9.035,0.061
		C1679.327,389.557,1679.321,389.657,1679.315,389.757z"/>
	<path fill="#F99DA2" stroke="#F99DA2" stroke-width="2" stroke-miterlimit="10" d="M1682.649,299.713
		c6.089,0.4,11.793,3.058,16.786,7.275c6.228,5.258,10.474,11.717,11.536,19.98c0.105,0.82,0.158,1.655,0.144,2.481
		c-0.02,1.207-0.641,2.018-1.886,2.011c-1.16-0.006-1.745-0.775-1.837-1.912c-0.985-12.263-8.043-19.934-18.857-24.611
		c-2.044-0.884-4.393-1.148-6.635-1.462c-1.85-0.259-2.821-0.791-2.737-2.024C1679.248,300.223,1680.226,299.642,1682.649,299.713z"
		/>
	<path fill="#F99DA2" stroke="#F99DA2" stroke-width="2" stroke-miterlimit="10" d="M1679.166,402.568
		c-4.152,0-8.304,0.005-12.456-0.003c-1.598-0.003-2.563-0.715-2.564-1.855c-0.001-1.157,0.954-1.88,2.536-1.881
		c8.356-0.005,16.712-0.005,25.067,0c1.64,0.001,2.536,0.669,2.546,1.853c0.01,1.188-0.893,1.879-2.518,1.883
		C1687.574,402.574,1683.37,402.568,1679.166,402.568z"/>
	<path fill="#F99DA2" stroke="#F99DA2" stroke-width="2" stroke-miterlimit="10" d="M1679.405,411.921c4.1,0,8.2-0.004,12.3,0.002
		c1.664,0.003,2.552,0.634,2.591,1.809c0.041,1.239-0.881,1.927-2.63,1.928c-8.304,0.004-16.607,0.004-24.911,0
		c-1.621-0.001-2.575-0.678-2.608-1.812c-0.034-1.205,0.942-1.924,2.647-1.926C1670.998,411.918,1675.201,411.921,1679.405,411.921z
		"/>
	<path fill="#F99DA2" stroke="#F99DA2" stroke-width="2" stroke-miterlimit="10" d="M1679.225,425.016
		c2.39,0,4.78,0.011,7.169-0.004c1.264-0.008,2.145,0.479,2.275,1.81c0.112,1.147-0.828,1.924-2.302,1.929
		c-4.728,0.016-9.455,0.014-14.183,0.001c-1.467-0.004-2.388-0.762-2.372-1.882c0.015-1.13,0.918-1.842,2.4-1.85
		C1674.549,425.006,1676.887,425.016,1679.225,425.016z"/>
</g>
<g>
	<path fill="#F99DA2" d="M871.072,99.103h-4.553V72.798h4.553V99.103z"/>
	<path fill="#F99DA2" d="M889.806,81.687c1.433-1.662,3.246-2.493,5.438-2.493c4.167,0,6.281,2.379,6.341,7.136v12.773h-4.39v-12.61
		c0-1.349-0.292-2.304-0.876-2.863c-0.584-0.561-1.442-0.84-2.574-0.84c-1.759,0-3.071,0.783-3.938,2.349v13.965h-4.39v-27.75h4.39
		V81.687z"/>
	<path fill="#F99DA2" d="M917.701,99.103c-0.193-0.373-0.361-0.981-0.506-1.825c-1.397,1.458-3.107,2.186-5.131,2.186
		c-1.963,0-3.565-0.56-4.806-1.68c-1.241-1.12-1.861-2.505-1.861-4.155c0-2.083,0.774-3.683,2.321-4.796
		c1.548-1.114,3.761-1.671,6.64-1.671h2.692v-1.283c0-1.012-0.283-1.822-0.849-2.43c-0.566-0.608-1.427-0.913-2.583-0.913
		c-1,0-1.819,0.25-2.457,0.75c-0.639,0.5-0.958,1.136-0.958,1.906h-4.39c0-1.072,0.355-2.075,1.066-3.008
		c0.71-0.934,1.677-1.665,2.899-2.195c1.223-0.53,2.586-0.795,4.092-0.795c2.288,0,4.113,0.575,5.474,1.726
		c1.361,1.15,2.06,2.767,2.096,4.851v8.816c0,1.759,0.247,3.162,0.741,4.209v0.307H917.701z M912.877,95.941
		c0.867,0,1.683-0.21,2.448-0.632c0.765-0.421,1.339-0.987,1.725-1.698v-3.686h-2.367c-1.626,0-2.849,0.283-3.667,0.849
		c-0.819,0.566-1.229,1.367-1.229,2.403c0,0.843,0.28,1.515,0.84,2.015C911.188,95.691,911.938,95.941,912.877,95.941z"/>
	<path fill="#F99DA2" d="M932.66,93.538l4.137-13.983h4.535l-6.775,19.548h-3.812l-6.829-19.548h4.553L932.66,93.538z"/>
	<path fill="#F99DA2" d="M952.443,99.464c-2.782,0-5.038-0.876-6.766-2.629c-1.728-1.752-2.592-4.085-2.592-7v-0.542
		c0-1.951,0.376-3.695,1.129-5.23c0.752-1.536,1.809-2.731,3.17-3.586c1.361-0.855,2.878-1.283,4.553-1.283
		c2.662,0,4.718,0.849,6.169,2.547c1.452,1.698,2.177,4.101,2.177,7.208v1.771H947.51c0.132,1.614,0.671,2.891,1.617,3.83
		c0.945,0.939,2.134,1.409,3.568,1.409c2.011,0,3.649-0.813,4.914-2.439l2.367,2.258c-0.783,1.168-1.828,2.075-3.135,2.719
		C955.535,99.142,954.069,99.464,952.443,99.464z M951.919,82.717c-1.205,0-2.177,0.422-2.918,1.265
		c-0.74,0.843-1.213,2.018-1.418,3.523h8.365v-0.325c-0.097-1.469-0.488-2.581-1.174-3.333
		C954.087,83.093,953.135,82.717,951.919,82.717z"/>
	<path fill="#F99DA2" d="M990.075,93.051l3.107-13.496h4.282l-5.33,19.548h-3.613l-4.191-13.423l-4.119,13.423h-3.613l-5.348-19.548
		h4.282l3.162,13.351l4.011-13.351h3.306L990.075,93.051z"/>
	<path fill="#F99DA2" d="M999.578,89.148c0-1.915,0.379-3.64,1.138-5.176c0.759-1.535,1.825-2.716,3.198-3.541
		c1.373-0.825,2.951-1.237,4.733-1.237c2.638,0,4.779,0.849,6.422,2.547c1.645,1.698,2.532,3.951,2.665,6.757l0.018,1.03
		c0,1.927-0.371,3.649-1.111,5.167c-0.741,1.518-1.801,2.692-3.18,3.523c-1.379,0.831-2.972,1.247-4.779,1.247
		c-2.758,0-4.965-0.918-6.622-2.755c-1.656-1.837-2.484-4.285-2.484-7.344V89.148z M1003.968,89.528
		c0,2.012,0.416,3.586,1.247,4.725c0.831,1.138,1.987,1.707,3.469,1.707s2.635-0.578,3.459-1.734
		c0.825-1.156,1.238-2.848,1.238-5.077c0-1.975-0.424-3.541-1.274-4.697c-0.849-1.156-2.002-1.734-3.459-1.734
		c-1.434,0-2.572,0.569-3.415,1.708C1004.389,85.562,1003.968,87.263,1003.968,89.528z"/>
	<path fill="#F99DA2" d="M1020.643,89.148c0-1.915,0.379-3.64,1.138-5.176c0.759-1.535,1.825-2.716,3.198-3.541
		c1.373-0.825,2.951-1.237,4.733-1.237c2.638,0,4.779,0.849,6.422,2.547c1.645,1.698,2.532,3.951,2.665,6.757l0.018,1.03
		c0,1.927-0.371,3.649-1.111,5.167c-0.741,1.518-1.801,2.692-3.18,3.523c-1.379,0.831-2.972,1.247-4.779,1.247
		c-2.758,0-4.965-0.918-6.622-2.755c-1.656-1.837-2.484-4.285-2.484-7.344V89.148z M1025.033,89.528
		c0,2.012,0.416,3.586,1.247,4.725c0.831,1.138,1.987,1.707,3.469,1.707s2.635-0.578,3.459-1.734
		c0.825-1.156,1.238-2.848,1.238-5.077c0-1.975-0.424-3.541-1.274-4.697c-0.849-1.156-2.002-1.734-3.459-1.734
		c-1.434,0-2.572,0.569-3.415,1.708C1025.455,85.562,1025.033,87.263,1025.033,89.528z"/>
	<path fill="#F99DA2" d="M1041.709,89.184c0-3.011,0.698-5.429,2.096-7.253c1.397-1.825,3.27-2.737,5.619-2.737
		c2.071,0,3.746,0.723,5.022,2.168V71.353h4.39v27.75h-3.975l-0.217-2.023c-1.313,1.59-3.065,2.385-5.257,2.385
		c-2.289,0-4.14-0.921-5.556-2.764C1042.416,94.857,1041.709,92.352,1041.709,89.184z M1046.099,89.564
		c0,1.987,0.382,3.538,1.147,4.652c0.765,1.114,1.852,1.671,3.261,1.671c1.794,0,3.107-0.801,3.938-2.403v-8.347
		c-0.807-1.565-2.108-2.349-3.902-2.349c-1.421,0-2.518,0.563-3.288,1.689C1046.484,85.604,1046.099,87.3,1046.099,89.564z"/>
	<path fill="#F99DA2" d="M891.829,143.503h-4.39v-27.75h4.39V143.503z"/>
	<path fill="#F99DA2" d="M905.217,143.864c-2.782,0-5.038-0.876-6.766-2.629c-1.728-1.752-2.592-4.085-2.592-7v-0.542
		c0-1.951,0.376-3.695,1.129-5.23c0.752-1.536,1.809-2.731,3.17-3.586c1.361-0.855,2.878-1.283,4.553-1.283
		c2.662,0,4.718,0.849,6.169,2.547c1.452,1.698,2.177,4.101,2.177,7.209v1.771h-12.773c0.132,1.614,0.671,2.891,1.617,3.83
		c0.945,0.939,2.134,1.409,3.568,1.409c2.011,0,3.649-0.813,4.914-2.439l2.367,2.258c-0.783,1.168-1.828,2.075-3.135,2.719
		C908.309,143.542,906.843,143.864,905.217,143.864z M904.693,127.116c-1.205,0-2.177,0.422-2.918,1.265
		c-0.74,0.843-1.213,2.018-1.418,3.523h8.365v-0.325c-0.097-1.469-0.488-2.581-1.174-3.333
		C906.861,127.493,905.909,127.116,904.693,127.116z"/>
	<path fill="#F99DA2" d="M918.008,143.503v-16.296h-2.981v-3.252h2.981v-1.789c0-2.168,0.602-3.842,1.807-5.022
		c1.204-1.18,2.891-1.771,5.059-1.771c0.771,0,1.59,0.108,2.457,0.325l-0.108,3.433c-0.482-0.096-1.042-0.145-1.68-0.145
		c-2.096,0-3.144,1.078-3.144,3.234v1.734h3.975v3.252h-3.975v16.296H918.008z"/>
	<path fill="#F99DA2" d="M935.08,119.203v4.751h3.451v3.252h-3.451v10.912c0,0.747,0.147,1.286,0.443,1.617
		c0.295,0.331,0.822,0.497,1.581,0.497c0.506,0,1.018-0.06,1.536-0.181v3.396c-1,0.277-1.963,0.416-2.891,0.416
		c-3.373,0-5.059-1.861-5.059-5.583v-11.075h-3.216v-3.252h3.216v-4.751H935.08z"/>
	<path fill="#F99DA2" d="M940.518,133.548c0-1.915,0.379-3.64,1.138-5.176c0.759-1.535,1.825-2.716,3.198-3.541
		c1.373-0.825,2.951-1.237,4.733-1.237c2.638,0,4.779,0.849,6.422,2.547c1.645,1.698,2.532,3.951,2.665,6.757l0.018,1.03
		c0,1.927-0.371,3.649-1.111,5.167c-0.741,1.518-1.801,2.692-3.18,3.523c-1.379,0.831-2.972,1.247-4.779,1.247
		c-2.758,0-4.965-0.918-6.622-2.755c-1.656-1.837-2.484-4.285-2.484-7.344V133.548z M944.908,133.928
		c0,2.012,0.416,3.586,1.247,4.725c0.831,1.138,1.987,1.707,3.469,1.707s2.635-0.578,3.459-1.734
		c0.825-1.156,1.238-2.848,1.238-5.077c0-1.975-0.424-3.541-1.274-4.697c-0.849-1.156-2.002-1.734-3.459-1.734
		c-1.434,0-2.572,0.569-3.415,1.708C945.33,129.962,944.908,131.663,944.908,133.928z"/>
	<path fill="#F99DA2" d="M969.027,137.938l4.137-13.983h4.535l-6.775,19.548h-3.812l-6.829-19.548h4.553L969.027,137.938z"/>
	<path fill="#F99DA2" d="M988.81,143.864c-2.782,0-5.038-0.876-6.766-2.629c-1.728-1.752-2.592-4.085-2.592-7v-0.542
		c0-1.951,0.376-3.695,1.129-5.23c0.752-1.536,1.809-2.731,3.17-3.586c1.361-0.855,2.878-1.283,4.553-1.283
		c2.662,0,4.718,0.849,6.169,2.547c1.452,1.698,2.177,4.101,2.177,7.209v1.771h-12.773c0.132,1.614,0.671,2.891,1.617,3.83
		c0.945,0.939,2.134,1.409,3.568,1.409c2.011,0,3.649-0.813,4.914-2.439l2.367,2.258c-0.783,1.168-1.828,2.075-3.135,2.719
		C991.902,143.542,990.436,143.864,988.81,143.864z M988.286,127.116c-1.205,0-2.177,0.422-2.918,1.265
		c-0.74,0.843-1.213,2.018-1.418,3.523h8.365v-0.325c-0.097-1.469-0.488-2.581-1.174-3.333
		C990.454,127.493,989.502,127.116,988.286,127.116z"/>
	<path fill="#F99DA2" d="M1010.291,127.966c-0.578-0.096-1.174-0.145-1.789-0.145c-2.012,0-3.367,0.771-4.065,2.313v13.369h-4.39
		v-19.548h4.191l0.108,2.186c1.06-1.698,2.529-2.547,4.408-2.547c0.626,0,1.144,0.084,1.554,0.253L1010.291,127.966z"/>
	<path fill="#F99DA2" d="M1024.021,138.191c0-0.783-0.322-1.379-0.966-1.789c-0.645-0.409-1.714-0.771-3.207-1.084
		c-1.494-0.313-2.74-0.71-3.74-1.192c-2.192-1.06-3.288-2.595-3.288-4.607c0-1.686,0.71-3.095,2.132-4.228
		c1.421-1.132,3.228-1.698,5.42-1.698c2.336,0,4.225,0.578,5.664,1.734c1.439,1.156,2.159,2.656,2.159,4.499h-4.39
		c0-0.843-0.313-1.544-0.939-2.105c-0.626-0.56-1.458-0.84-2.493-0.84c-0.964,0-1.75,0.223-2.358,0.668
		c-0.608,0.446-0.912,1.042-0.912,1.789c0,0.675,0.283,1.199,0.849,1.572c0.566,0.374,1.71,0.75,3.433,1.129
		c1.722,0.379,3.074,0.831,4.056,1.354c0.981,0.524,1.71,1.154,2.186,1.888c0.476,0.735,0.714,1.626,0.714,2.674
		c0,1.759-0.729,3.183-2.186,4.273c-1.458,1.09-3.367,1.635-5.727,1.635c-1.602,0-3.029-0.289-4.282-0.867
		c-1.253-0.578-2.229-1.373-2.927-2.385c-0.699-1.012-1.048-2.102-1.048-3.27h4.264c0.06,1.036,0.452,1.833,1.174,2.394
		c0.723,0.56,1.68,0.84,2.873,0.84c1.156,0,2.035-0.22,2.638-0.659C1023.72,139.477,1024.021,138.902,1024.021,138.191z"/>
	<path fill="#F99DA2" d="M1032.494,141.434c0-0.684,0.223-1.251,0.668-1.701c0.445-0.45,1.054-0.675,1.825-0.675
		c0.771,0,1.379,0.225,1.825,0.675c0.445,0.45,0.668,1.017,0.668,1.701c0,0.66-0.217,1.211-0.65,1.655s-1.048,0.666-1.843,0.666
		s-1.409-0.222-1.843-0.666S1032.494,142.094,1032.494,141.434z M1036.812,135.77h-3.776l-0.416-18.572h4.625L1036.812,135.77z"/>
</g>
<g>
	<path fill="#F99DA2" d="M73.069,637.075c0-1.156-0.407-2.047-1.219-2.674c-0.813-0.626-2.28-1.258-4.399-1.897
		c-2.12-0.638-3.806-1.349-5.059-2.132c-2.397-1.505-3.595-3.469-3.595-5.89c0-2.12,0.864-3.866,2.592-5.239
		c1.729-1.373,3.972-2.06,6.73-2.06c1.831,0,3.462,0.337,4.896,1.012c1.433,0.675,2.559,1.635,3.378,2.882
		c0.819,1.246,1.229,2.628,1.229,4.146h-4.553c0-1.373-0.431-2.448-1.292-3.225c-0.861-0.776-2.093-1.165-3.695-1.165
		c-1.494,0-2.653,0.319-3.478,0.958c-0.825,0.639-1.237,1.53-1.237,2.674c0,0.964,0.445,1.768,1.337,2.412
		c0.891,0.645,2.36,1.271,4.408,1.879c2.047,0.608,3.691,1.301,4.932,2.078c1.24,0.776,2.15,1.668,2.728,2.674
		c0.578,1.005,0.867,2.183,0.867,3.532c0,2.192-0.84,3.936-2.521,5.23c-1.68,1.295-3.959,1.942-6.838,1.942
		c-1.903,0-3.652-0.353-5.248-1.057c-1.596-0.705-2.837-1.677-3.722-2.918c-0.886-1.24-1.328-2.686-1.328-4.336h4.571
		c0,1.494,0.494,2.65,1.481,3.469c0.987,0.819,2.403,1.229,4.246,1.229c1.59,0,2.785-0.322,3.586-0.967
		C72.668,638.987,73.069,638.135,73.069,637.075z"/>
	<path fill="#F99DA2" d="M80.404,633.895c0-1.915,0.379-3.64,1.138-5.176c0.759-1.535,1.825-2.716,3.198-3.541
		c1.373-0.825,2.951-1.237,4.733-1.237c2.638,0,4.779,0.849,6.422,2.547c1.645,1.698,2.532,3.951,2.665,6.757l0.018,1.03
		c0,1.927-0.371,3.649-1.111,5.167c-0.741,1.518-1.801,2.692-3.18,3.523c-1.379,0.831-2.972,1.247-4.779,1.247
		c-2.758,0-4.965-0.918-6.622-2.755c-1.656-1.837-2.484-4.285-2.484-7.344V633.895z M84.794,634.275
		c0,2.012,0.416,3.586,1.247,4.725c0.831,1.138,1.987,1.707,3.469,1.707s2.635-0.578,3.459-1.734
		c0.825-1.156,1.238-2.848,1.238-5.077c0-1.975-0.424-3.541-1.274-4.697c-0.849-1.156-2.002-1.734-3.459-1.734
		c-1.434,0-2.572,0.569-3.415,1.708C85.215,630.309,84.794,632.011,84.794,634.275z"/>
	<path fill="#F99DA2" d="M106.419,624.302l0.126,2.042c1.373-1.602,3.252-2.403,5.637-2.403c2.613,0,4.402,1,5.366,2.999
		c1.421-1.999,3.42-2.999,5.998-2.999c2.156,0,3.761,0.596,4.815,1.789c1.054,1.192,1.592,2.951,1.617,5.275v12.845h-4.39v-12.719
		c0-1.24-0.271-2.15-0.813-2.728s-1.439-0.867-2.692-0.867c-1,0-1.815,0.268-2.448,0.804c-0.632,0.536-1.075,1.237-1.328,2.104
		l0.018,13.405h-4.39v-12.863c-0.061-2.3-1.235-3.451-3.523-3.451c-1.759,0-3.005,0.717-3.74,2.15v14.164h-4.39v-19.548H106.419z"/>
	<path fill="#F99DA2" d="M143.094,644.211c-2.782,0-5.038-0.876-6.766-2.629c-1.728-1.752-2.592-4.085-2.592-7v-0.542
		c0-1.951,0.376-3.695,1.129-5.23c0.752-1.536,1.809-2.731,3.17-3.586c1.361-0.855,2.878-1.283,4.553-1.283
		c2.662,0,4.718,0.849,6.169,2.547c1.452,1.698,2.177,4.101,2.177,7.208v1.771h-12.773c0.132,1.614,0.671,2.891,1.617,3.83
		c0.945,0.939,2.134,1.409,3.568,1.409c2.011,0,3.649-0.813,4.914-2.439l2.367,2.258c-0.783,1.168-1.828,2.075-3.135,2.719
		C146.186,643.889,144.72,644.211,143.094,644.211z M142.57,627.464c-1.205,0-2.177,0.422-2.918,1.265
		c-0.74,0.843-1.213,2.018-1.418,3.523h8.365v-0.325c-0.097-1.469-0.488-2.581-1.174-3.333
		C144.738,627.84,143.786,627.464,142.57,627.464z"/>
	<path fill="#F99DA2" d="M153.518,633.895c0-1.915,0.379-3.64,1.138-5.176c0.759-1.535,1.825-2.716,3.198-3.541
		c1.373-0.825,2.951-1.237,4.733-1.237c2.638,0,4.779,0.849,6.422,2.547c1.645,1.698,2.532,3.951,2.665,6.757l0.018,1.03
		c0,1.927-0.371,3.649-1.111,5.167c-0.741,1.518-1.801,2.692-3.18,3.523c-1.379,0.831-2.972,1.247-4.779,1.247
		c-2.758,0-4.965-0.918-6.622-2.755c-1.656-1.837-2.484-4.285-2.484-7.344V633.895z M157.908,634.275
		c0,2.012,0.416,3.586,1.247,4.725c0.831,1.138,1.987,1.707,3.469,1.707s2.635-0.578,3.459-1.734
		c0.825-1.156,1.238-2.848,1.238-5.077c0-1.975-0.424-3.541-1.274-4.697c-0.849-1.156-2.002-1.734-3.459-1.734
		c-1.434,0-2.572,0.569-3.415,1.708C158.33,630.309,157.908,632.011,157.908,634.275z"/>
	<path fill="#F99DA2" d="M179.48,624.302l0.126,2.258c1.445-1.746,3.342-2.62,5.691-2.62c4.071,0,6.143,2.331,6.215,6.992v12.917
		h-4.39v-12.665c0-1.24-0.268-2.159-0.804-2.755c-0.536-0.596-1.412-0.894-2.628-0.894c-1.771,0-3.089,0.801-3.957,2.403v13.911
		h-4.39v-19.548H179.48z"/>
	<path fill="#F99DA2" d="M204.592,644.211c-2.782,0-5.038-0.876-6.766-2.629c-1.728-1.752-2.592-4.085-2.592-7v-0.542
		c0-1.951,0.376-3.695,1.129-5.23c0.752-1.536,1.809-2.731,3.17-3.586c1.361-0.855,2.878-1.283,4.553-1.283
		c2.662,0,4.718,0.849,6.169,2.547c1.452,1.698,2.177,4.101,2.177,7.208v1.771H199.66c0.132,1.614,0.671,2.891,1.617,3.83
		c0.945,0.939,2.134,1.409,3.568,1.409c2.011,0,3.649-0.813,4.914-2.439l2.367,2.258c-0.783,1.168-1.828,2.075-3.135,2.719
		C207.684,643.889,206.218,644.211,204.592,644.211z M204.068,627.464c-1.205,0-2.177,0.422-2.918,1.265
		c-0.74,0.843-1.213,2.018-1.418,3.523h8.365v-0.325c-0.097-1.469-0.488-2.581-1.174-3.333
		C206.236,627.84,205.284,627.464,204.068,627.464z"/>
	<path fill="#F99DA2" d="M230.553,619.551v4.751h3.451v3.252h-3.451v10.912c0,0.747,0.147,1.286,0.443,1.617
		c0.295,0.331,0.822,0.497,1.581,0.497c0.506,0,1.018-0.06,1.536-0.181v3.396c-1,0.277-1.963,0.416-2.891,0.416
		c-3.373,0-5.059-1.861-5.059-5.583v-11.075h-3.216v-3.252h3.216v-4.751H230.553z"/>
	<path fill="#F99DA2" d="M241.682,626.434c1.433-1.662,3.246-2.493,5.438-2.493c4.167,0,6.281,2.379,6.341,7.136v12.773h-4.39
		v-12.61c0-1.349-0.292-2.304-0.876-2.863c-0.584-0.561-1.442-0.84-2.574-0.84c-1.759,0-3.071,0.783-3.938,2.349v13.965h-4.39V616.1
		h4.39V626.434z"/>
	<path fill="#F99DA2" d="M266.506,644.211c-2.782,0-5.038-0.876-6.766-2.629c-1.728-1.752-2.592-4.085-2.592-7v-0.542
		c0-1.951,0.376-3.695,1.129-5.23c0.752-1.536,1.809-2.731,3.17-3.586c1.361-0.855,2.878-1.283,4.553-1.283
		c2.662,0,4.718,0.849,6.169,2.547c1.452,1.698,2.177,4.101,2.177,7.208v1.771h-12.773c0.132,1.614,0.671,2.891,1.617,3.83
		c0.945,0.939,2.134,1.409,3.568,1.409c2.011,0,3.649-0.813,4.914-2.439l2.367,2.258c-0.783,1.168-1.828,2.075-3.135,2.719
		C269.598,643.889,268.132,644.211,266.506,644.211z M265.982,627.464c-1.205,0-2.177,0.422-2.918,1.265
		c-0.74,0.843-1.213,2.018-1.418,3.523h8.365v-0.325c-0.097-1.469-0.488-2.581-1.174-3.333
		C268.15,627.84,267.198,627.464,265.982,627.464z"/>
	<path fill="#F99DA2" d="M287.987,628.313c-0.578-0.096-1.174-0.145-1.789-0.145c-2.012,0-3.367,0.771-4.065,2.313v13.369h-4.39
		v-19.548h4.191l0.108,2.186c1.06-1.698,2.529-2.547,4.408-2.547c0.626,0,1.144,0.084,1.554,0.253L287.987,628.313z"/>
	<path fill="#F99DA2" d="M299.025,644.211c-2.782,0-5.038-0.876-6.766-2.629c-1.728-1.752-2.592-4.085-2.592-7v-0.542
		c0-1.951,0.376-3.695,1.129-5.23c0.752-1.536,1.809-2.731,3.17-3.586c1.361-0.855,2.878-1.283,4.553-1.283
		c2.662,0,4.718,0.849,6.169,2.547c1.452,1.698,2.177,4.101,2.177,7.208v1.771h-12.773c0.132,1.614,0.671,2.891,1.617,3.83
		c0.945,0.939,2.134,1.409,3.568,1.409c2.011,0,3.649-0.813,4.914-2.439l2.367,2.258c-0.783,1.168-1.828,2.075-3.135,2.719
		C302.117,643.889,300.651,644.211,299.025,644.211z M298.501,627.464c-1.205,0-2.177,0.422-2.918,1.265
		c-0.74,0.843-1.213,2.018-1.418,3.523h8.365v-0.325c-0.097-1.469-0.488-2.581-1.174-3.333
		C300.669,627.84,299.718,627.464,298.501,627.464z"/>
	<path fill="#F99DA2" d="M45.869,679.867l-1.951,2.005v6.377h-4.39V660.5h4.39v16.007l1.373-1.716l5.402-6.088h5.275l-7.263,8.148
		l8.04,11.4h-5.077L45.869,679.867z"/>
	<path fill="#F99DA2" d="M62.906,668.702l0.126,2.258c1.445-1.746,3.342-2.62,5.691-2.62c4.071,0,6.143,2.331,6.215,6.992v12.917
		h-4.39v-12.665c0-1.24-0.268-2.159-0.804-2.755c-0.536-0.596-1.412-0.894-2.628-0.894c-1.771,0-3.089,0.801-3.957,2.403v13.911
		h-4.39v-19.548H62.906z"/>
	<path fill="#F99DA2" d="M78.588,678.295c0-1.915,0.379-3.64,1.138-5.176c0.759-1.535,1.825-2.716,3.198-3.541
		c1.373-0.825,2.951-1.237,4.733-1.237c2.638,0,4.779,0.849,6.422,2.547c1.645,1.698,2.532,3.951,2.665,6.757l0.018,1.03
		c0,1.927-0.371,3.649-1.111,5.167c-0.741,1.518-1.801,2.692-3.18,3.523c-1.379,0.831-2.972,1.247-4.779,1.247
		c-2.758,0-4.965-0.918-6.622-2.755c-1.656-1.837-2.484-4.285-2.484-7.344V678.295z M82.978,678.675
		c0,2.012,0.416,3.586,1.247,4.725c0.831,1.138,1.987,1.707,3.469,1.707s2.635-0.578,3.459-1.734
		c0.825-1.156,1.238-2.848,1.238-5.077c0-1.975-0.424-3.541-1.274-4.697c-0.849-1.156-2.002-1.734-3.459-1.734
		c-1.434,0-2.572,0.569-3.415,1.708C83.399,674.709,82.978,676.41,82.978,678.675z"/>
	<path fill="#F99DA2" d="M117.647,682.198l3.107-13.496h4.282l-5.33,19.548h-3.613l-4.191-13.423l-4.119,13.423h-3.613
		l-5.348-19.548h4.282l3.162,13.351l4.011-13.351h3.306L117.647,682.198z"/>
	<path fill="#F99DA2" d="M138.929,682.938c0-0.783-0.322-1.379-0.966-1.789c-0.645-0.409-1.714-0.771-3.207-1.084
		c-1.494-0.313-2.74-0.71-3.74-1.192c-2.192-1.06-3.288-2.595-3.288-4.607c0-1.686,0.71-3.095,2.132-4.228
		c1.421-1.132,3.228-1.698,5.42-1.698c2.336,0,4.225,0.578,5.664,1.734c1.439,1.156,2.159,2.656,2.159,4.499h-4.39
		c0-0.843-0.313-1.544-0.939-2.105c-0.626-0.56-1.458-0.84-2.493-0.84c-0.964,0-1.75,0.223-2.358,0.668
		c-0.608,0.446-0.912,1.042-0.912,1.789c0,0.675,0.283,1.199,0.849,1.572c0.566,0.374,1.71,0.75,3.433,1.129
		c1.722,0.379,3.074,0.831,4.056,1.354c0.981,0.524,1.71,1.154,2.186,1.888c0.476,0.735,0.714,1.626,0.714,2.674
		c0,1.759-0.729,3.183-2.186,4.273c-1.458,1.09-3.367,1.635-5.727,1.635c-1.602,0-3.029-0.289-4.282-0.867
		c-1.253-0.578-2.229-1.373-2.927-2.385c-0.699-1.012-1.048-2.102-1.048-3.27h4.264c0.06,1.036,0.452,1.833,1.174,2.394
		c0.723,0.56,1.68,0.84,2.873,0.84c1.156,0,2.035-0.22,2.638-0.659C138.628,684.224,138.929,683.649,138.929,682.938z"/>
	<path fill="#F99DA2" d="M167.24,682.938c0-0.783-0.322-1.379-0.966-1.789c-0.645-0.409-1.714-0.771-3.207-1.084
		c-1.494-0.313-2.74-0.71-3.74-1.192c-2.192-1.06-3.288-2.595-3.288-4.607c0-1.686,0.71-3.095,2.132-4.228
		c1.421-1.132,3.228-1.698,5.42-1.698c2.336,0,4.225,0.578,5.664,1.734c1.439,1.156,2.159,2.656,2.159,4.499h-4.39
		c0-0.843-0.313-1.544-0.939-2.105c-0.626-0.56-1.458-0.84-2.493-0.84c-0.964,0-1.75,0.223-2.358,0.668
		c-0.608,0.446-0.912,1.042-0.912,1.789c0,0.675,0.283,1.199,0.849,1.572c0.566,0.374,1.71,0.75,3.433,1.129
		c1.722,0.379,3.074,0.831,4.056,1.354c0.981,0.524,1.71,1.154,2.186,1.888c0.476,0.735,0.714,1.626,0.714,2.674
		c0,1.759-0.729,3.183-2.186,4.273c-1.458,1.09-3.367,1.635-5.727,1.635c-1.602,0-3.029-0.289-4.282-0.867
		c-1.253-0.578-2.229-1.373-2.927-2.385c-0.699-1.012-1.048-2.102-1.048-3.27h4.264c0.06,1.036,0.452,1.833,1.174,2.394
		c0.723,0.56,1.68,0.84,2.873,0.84c1.156,0,2.035-0.22,2.638-0.659C166.938,684.224,167.24,683.649,167.24,682.938z"/>
	<path fill="#F99DA2" d="M174.556,678.295c0-1.915,0.379-3.64,1.138-5.176c0.759-1.535,1.825-2.716,3.198-3.541
		c1.373-0.825,2.951-1.237,4.733-1.237c2.638,0,4.779,0.849,6.422,2.547c1.645,1.698,2.532,3.951,2.665,6.757l0.018,1.03
		c0,1.927-0.371,3.649-1.111,5.167c-0.741,1.518-1.801,2.692-3.18,3.523c-1.379,0.831-2.972,1.247-4.779,1.247
		c-2.758,0-4.965-0.918-6.622-2.755c-1.656-1.837-2.484-4.285-2.484-7.344V678.295z M178.947,678.675
		c0,2.012,0.416,3.586,1.247,4.725c0.831,1.138,1.987,1.707,3.469,1.707s2.635-0.578,3.459-1.734
		c0.825-1.156,1.238-2.848,1.238-5.077c0-1.975-0.424-3.541-1.274-4.697c-0.849-1.156-2.002-1.734-3.459-1.734
		c-1.434,0-2.572,0.569-3.415,1.708C179.368,674.709,178.947,676.41,178.947,678.675z"/>
	<path fill="#F99DA2" d="M200.572,668.702l0.126,2.042c1.373-1.602,3.252-2.403,5.637-2.403c2.613,0,4.402,1,5.366,2.999
		c1.421-1.999,3.42-2.999,5.998-2.999c2.156,0,3.761,0.596,4.815,1.789c1.054,1.192,1.592,2.951,1.617,5.275v12.845h-4.39v-12.719
		c0-1.24-0.271-2.15-0.813-2.728s-1.439-0.867-2.692-0.867c-1,0-1.815,0.268-2.448,0.804c-0.632,0.536-1.075,1.237-1.328,2.104
		l0.018,13.405h-4.39v-12.863c-0.061-2.3-1.235-3.451-3.523-3.451c-1.759,0-3.005,0.717-3.74,2.15v14.164h-4.39v-19.548H200.572z"/>
	<path fill="#F99DA2" d="M237.247,688.611c-2.782,0-5.038-0.876-6.766-2.629c-1.728-1.752-2.592-4.085-2.592-7v-0.542
		c0-1.951,0.376-3.695,1.129-5.23c0.752-1.536,1.809-2.731,3.17-3.586c1.361-0.855,2.878-1.283,4.553-1.283
		c2.662,0,4.718,0.849,6.169,2.547c1.452,1.698,2.177,4.101,2.177,7.208v1.771h-12.773c0.132,1.614,0.671,2.891,1.617,3.83
		c0.945,0.939,2.134,1.409,3.568,1.409c2.011,0,3.649-0.813,4.914-2.439l2.367,2.258c-0.783,1.168-1.828,2.075-3.135,2.719
		C240.339,688.289,238.873,688.611,237.247,688.611z M236.723,671.864c-1.205,0-2.177,0.422-2.918,1.265
		c-0.74,0.843-1.213,2.018-1.418,3.523h8.365v-0.325c-0.097-1.469-0.488-2.581-1.174-3.333
		C238.891,672.24,237.939,671.864,236.723,671.864z"/>
	<path fill="#F99DA2" d="M247.671,678.295c0-1.915,0.379-3.64,1.138-5.176c0.759-1.535,1.825-2.716,3.198-3.541
		c1.373-0.825,2.951-1.237,4.733-1.237c2.638,0,4.779,0.849,6.422,2.547c1.645,1.698,2.532,3.951,2.665,6.757l0.018,1.03
		c0,1.927-0.371,3.649-1.111,5.167c-0.741,1.518-1.801,2.692-3.18,3.523c-1.379,0.831-2.972,1.247-4.779,1.247
		c-2.758,0-4.965-0.918-6.622-2.755c-1.656-1.837-2.484-4.285-2.484-7.344V678.295z M252.061,678.675
		c0,2.012,0.416,3.586,1.247,4.725c0.831,1.138,1.987,1.707,3.469,1.707s2.635-0.578,3.459-1.734
		c0.825-1.156,1.238-2.848,1.238-5.077c0-1.975-0.424-3.541-1.274-4.697c-0.849-1.156-2.002-1.734-3.459-1.734
		c-1.434,0-2.572,0.569-3.415,1.708C252.483,674.709,252.061,676.41,252.061,678.675z"/>
	<path fill="#F99DA2" d="M273.633,668.702l0.126,2.258c1.445-1.746,3.342-2.62,5.691-2.62c4.071,0,6.143,2.331,6.215,6.992v12.917
		h-4.39v-12.665c0-1.24-0.268-2.159-0.804-2.755c-0.536-0.596-1.412-0.894-2.628-0.894c-1.771,0-3.089,0.801-3.957,2.403v13.911
		h-4.39v-19.548H273.633z"/>
	<path fill="#F99DA2" d="M298.745,688.611c-2.782,0-5.038-0.876-6.766-2.629c-1.728-1.752-2.592-4.085-2.592-7v-0.542
		c0-1.951,0.376-3.695,1.129-5.23c0.752-1.536,1.809-2.731,3.17-3.586c1.361-0.855,2.878-1.283,4.553-1.283
		c2.662,0,4.718,0.849,6.169,2.547c1.452,1.698,2.177,4.101,2.177,7.208v1.771h-12.773c0.132,1.614,0.671,2.891,1.617,3.83
		c0.945,0.939,2.134,1.409,3.568,1.409c2.011,0,3.649-0.813,4.914-2.439l2.367,2.258c-0.783,1.168-1.828,2.075-3.135,2.719
		C301.837,688.289,300.371,688.611,298.745,688.611z M298.221,671.864c-1.205,0-2.177,0.422-2.918,1.265
		c-0.74,0.843-1.213,2.018-1.418,3.523h8.365v-0.325c-0.097-1.469-0.488-2.581-1.174-3.333
		C300.389,672.24,299.437,671.864,298.221,671.864z"/>
	<path fill="#F99DA2" d="M324.453,688.25h-4.553v-26.305h4.553V688.25z"/>
	<path fill="#F99DA2" d="M39.772,722.731c0-3.011,0.698-5.429,2.096-7.253c1.397-1.825,3.27-2.737,5.619-2.737
		c2.071,0,3.746,0.723,5.022,2.168V704.9h4.39v27.75h-3.975l-0.217-2.023c-1.313,1.59-3.065,2.385-5.257,2.385
		c-2.289,0-4.14-0.922-5.556-2.765C40.48,728.404,39.772,725.899,39.772,722.731z M44.162,723.111c0,1.987,0.382,3.538,1.147,4.652
		c0.765,1.114,1.852,1.671,3.261,1.671c1.794,0,3.107-0.801,3.938-2.403v-8.347c-0.807-1.565-2.108-2.349-3.902-2.349
		c-1.421,0-2.518,0.563-3.288,1.689C44.548,719.151,44.162,720.846,44.162,723.111z"/>
	<path fill="#F99DA2" d="M60.657,722.695c0-1.915,0.379-3.64,1.138-5.176c0.759-1.535,1.825-2.716,3.198-3.541
		c1.373-0.825,2.951-1.237,4.733-1.237c2.638,0,4.779,0.849,6.422,2.547c1.645,1.698,2.532,3.951,2.665,6.757l0.018,1.03
		c0,1.927-0.371,3.649-1.111,5.167c-0.741,1.518-1.801,2.692-3.18,3.523c-1.379,0.831-2.972,1.247-4.779,1.247
		c-2.758,0-4.965-0.919-6.622-2.755c-1.656-1.837-2.484-4.285-2.484-7.345V722.695z M65.047,723.075
		c0,2.012,0.416,3.586,1.247,4.725c0.831,1.138,1.987,1.708,3.469,1.708s2.635-0.579,3.459-1.735
		c0.825-1.156,1.238-2.848,1.238-5.077c0-1.975-0.424-3.541-1.274-4.697c-0.849-1.156-2.002-1.734-3.459-1.734
		c-1.434,0-2.572,0.569-3.415,1.708C65.469,719.109,65.047,720.81,65.047,723.075z"/>
	<path fill="#F99DA2" d="M86.618,713.102l0.126,2.258c1.445-1.746,3.342-2.62,5.691-2.62c4.071,0,6.143,2.331,6.215,6.992v12.918
		h-4.39v-12.665c0-1.24-0.268-2.159-0.804-2.755c-0.536-0.596-1.412-0.894-2.628-0.894c-1.771,0-3.089,0.801-3.957,2.403v13.912
		h-4.39v-19.548H86.618z"/>
	<path fill="#F99DA2" d="M101.866,714.15l-2.24-1.391c1.084-1.578,1.644-3.246,1.68-5.004V704.9h3.848v2.493
		c0,1.241-0.316,2.49-0.949,3.749C103.574,712.4,102.794,713.403,101.866,714.15z"/>
	<path fill="#F99DA2" d="M114.477,708.35v4.751h3.451v3.252h-3.451v10.912c0,0.747,0.147,1.286,0.443,1.617
		c0.295,0.332,0.822,0.497,1.581,0.497c0.506,0,1.018-0.06,1.536-0.181v3.396c-1,0.277-1.963,0.416-2.891,0.416
		c-3.373,0-5.059-1.861-5.059-5.583v-11.075h-3.216v-3.252h3.216v-4.751H114.477z"/>
	<path fill="#F99DA2" d="M136.843,724.267l-1.951,2.005v6.378h-4.39V704.9h4.39v16.007l1.373-1.716l5.402-6.088h5.275l-7.263,8.148
		l8.04,11.4h-5.077L136.843,724.267z"/>
	<path fill="#F99DA2" d="M153.88,713.102l0.126,2.258c1.445-1.746,3.342-2.62,5.691-2.62c4.071,0,6.143,2.331,6.215,6.992v12.918
		h-4.39v-12.665c0-1.24-0.268-2.159-0.804-2.755c-0.536-0.596-1.412-0.894-2.628-0.894c-1.771,0-3.089,0.801-3.957,2.403v13.912
		h-4.39v-19.548H153.88z"/>
	<path fill="#F99DA2" d="M169.561,722.695c0-1.915,0.379-3.64,1.138-5.176c0.759-1.535,1.825-2.716,3.198-3.541
		c1.373-0.825,2.951-1.237,4.733-1.237c2.638,0,4.779,0.849,6.422,2.547c1.645,1.698,2.532,3.951,2.665,6.757l0.018,1.03
		c0,1.927-0.371,3.649-1.111,5.167c-0.741,1.518-1.801,2.692-3.18,3.523c-1.379,0.831-2.972,1.247-4.779,1.247
		c-2.758,0-4.965-0.919-6.622-2.755c-1.656-1.837-2.484-4.285-2.484-7.345V722.695z M173.951,723.075
		c0,2.012,0.416,3.586,1.247,4.725c0.831,1.138,1.987,1.708,3.469,1.708s2.635-0.579,3.459-1.735
		c0.825-1.156,1.238-2.848,1.238-5.077c0-1.975-0.424-3.541-1.274-4.697c-0.849-1.156-2.002-1.734-3.459-1.734
		c-1.434,0-2.572,0.569-3.415,1.708C174.373,719.109,173.951,720.81,173.951,723.075z"/>
	<path fill="#F99DA2" d="M208.621,726.597l3.107-13.496h4.282l-5.33,19.548h-3.613l-4.191-13.424l-4.119,13.424h-3.613
		l-5.348-19.548h4.282l3.162,13.351l4.011-13.351h3.306L208.621,726.597z"/>
	<path fill="#F99DA2" d="M245.332,726.597l3.107-13.496h4.282l-5.33,19.548h-3.613l-4.191-13.424l-4.119,13.424h-3.613
		l-5.348-19.548h4.282l3.162,13.351l4.011-13.351h3.306L245.332,726.597z"/>
	<path fill="#F99DA2" d="M259.984,715.234c1.433-1.662,3.246-2.493,5.438-2.493c4.167,0,6.281,2.379,6.341,7.136v12.773h-4.39
		v-12.611c0-1.349-0.292-2.304-0.876-2.863c-0.584-0.561-1.442-0.84-2.574-0.84c-1.759,0-3.071,0.783-3.938,2.349v13.966h-4.39
		V704.9h4.39V715.234z"/>
	<path fill="#F99DA2" d="M284.807,733.012c-2.782,0-5.038-0.876-6.766-2.629c-1.728-1.752-2.592-4.086-2.592-7.001v-0.542
		c0-1.951,0.376-3.695,1.129-5.23c0.752-1.536,1.809-2.731,3.17-3.586c1.361-0.855,2.878-1.283,4.553-1.283
		c2.662,0,4.718,0.849,6.169,2.547c1.452,1.698,2.177,4.101,2.177,7.208v1.771h-12.773c0.132,1.614,0.671,2.891,1.617,3.83
		c0.945,0.939,2.134,1.41,3.568,1.41c2.011,0,3.649-0.813,4.914-2.439l2.367,2.259c-0.783,1.168-1.828,2.074-3.135,2.719
		C287.899,732.689,286.433,733.012,284.807,733.012z M284.283,716.263c-1.205,0-2.177,0.422-2.918,1.265
		c-0.74,0.843-1.213,2.018-1.418,3.523h8.365v-0.325c-0.097-1.469-0.488-2.581-1.174-3.333
		C286.451,716.64,285.499,716.263,284.283,716.263z"/>
	<path fill="#F99DA2" d="M306.288,717.113c-0.578-0.096-1.174-0.145-1.789-0.145c-2.012,0-3.367,0.771-4.065,2.313v13.37h-4.39
		v-19.548h4.191l0.108,2.186c1.06-1.698,2.529-2.547,4.408-2.547c0.626,0,1.144,0.084,1.554,0.253L306.288,717.113z"/>
	<path fill="#F99DA2" d="M317.326,733.012c-2.782,0-5.038-0.876-6.766-2.629c-1.728-1.752-2.592-4.086-2.592-7.001v-0.542
		c0-1.951,0.376-3.695,1.129-5.23c0.752-1.536,1.809-2.731,3.17-3.586c1.361-0.855,2.878-1.283,4.553-1.283
		c2.662,0,4.718,0.849,6.169,2.547c1.452,1.698,2.177,4.101,2.177,7.208v1.771h-12.773c0.132,1.614,0.671,2.891,1.617,3.83
		c0.945,0.939,2.134,1.41,3.568,1.41c2.011,0,3.649-0.813,4.914-2.439l2.367,2.259c-0.783,1.168-1.828,2.074-3.135,2.719
		C320.419,732.689,318.952,733.012,317.326,733.012z M316.802,716.263c-1.205,0-2.177,0.422-2.918,1.265
		c-0.74,0.843-1.213,2.018-1.418,3.523h8.365v-0.325c-0.097-1.469-0.488-2.581-1.174-3.333
		C318.97,716.64,318.019,716.263,316.802,716.263z"/>
	<path fill="#F99DA2" d="M88.56,752.751v4.752h3.451v3.252H88.56v10.912c0,0.747,0.147,1.285,0.443,1.617
		c0.295,0.331,0.822,0.496,1.581,0.496c0.506,0,1.018-0.06,1.536-0.181v3.396c-1,0.277-1.963,0.416-2.891,0.416
		c-3.373,0-5.059-1.861-5.059-5.583v-11.074h-3.216v-3.252h3.216v-4.752H88.56z"/>
	<path fill="#F99DA2" d="M99.689,759.635c1.433-1.662,3.246-2.493,5.438-2.493c4.167,0,6.281,2.379,6.341,7.136v12.773h-4.39v-12.61
		c0-1.349-0.292-2.304-0.876-2.863c-0.584-0.561-1.442-0.841-2.574-0.841c-1.759,0-3.071,0.783-3.938,2.349v13.966h-4.39v-27.75
		h4.39V759.635z"/>
	<path fill="#F99DA2" d="M127.584,777.051c-0.193-0.373-0.361-0.981-0.506-1.825c-1.397,1.458-3.107,2.187-5.131,2.187
		c-1.963,0-3.565-0.561-4.806-1.681c-1.241-1.12-1.861-2.505-1.861-4.155c0-2.083,0.774-3.683,2.321-4.796
		c1.548-1.114,3.761-1.672,6.64-1.672h2.692v-1.282c0-1.012-0.283-1.822-0.849-2.43c-0.566-0.608-1.427-0.913-2.583-0.913
		c-1,0-1.819,0.25-2.457,0.75c-0.639,0.5-0.958,1.136-0.958,1.906h-4.39c0-1.072,0.355-2.075,1.066-3.008
		c0.71-0.934,1.677-1.665,2.899-2.195c1.223-0.53,2.586-0.795,4.092-0.795c2.288,0,4.113,0.575,5.474,1.726
		c1.361,1.149,2.06,2.767,2.096,4.851v8.816c0,1.759,0.247,3.161,0.741,4.209v0.308H127.584z M122.76,773.888
		c0.867,0,1.683-0.21,2.448-0.632c0.765-0.422,1.339-0.987,1.725-1.698v-3.686h-2.367c-1.626,0-2.849,0.283-3.667,0.849
		c-0.819,0.566-1.229,1.367-1.229,2.403c0,0.843,0.28,1.515,0.84,2.015C121.071,773.638,121.821,773.888,122.76,773.888z"/>
	<path fill="#F99DA2" d="M141.423,752.751v4.752h3.451v3.252h-3.451v10.912c0,0.747,0.147,1.285,0.443,1.617
		c0.295,0.331,0.822,0.496,1.581,0.496c0.506,0,1.018-0.06,1.536-0.181v3.396c-1,0.277-1.963,0.416-2.891,0.416
		c-3.373,0-5.059-1.861-5.059-5.583v-11.074h-3.216v-3.252h3.216v-4.752H141.423z"/>
	<path fill="#F99DA2" d="M163.789,768.668l-1.951,2.005v6.378h-4.39v-27.75h4.39v16.007l1.373-1.717l5.402-6.088h5.275l-7.263,8.147
		l8.04,11.4h-5.077L163.789,768.668z"/>
	<path fill="#F99DA2" d="M180.825,757.503l0.126,2.258c1.445-1.746,3.342-2.619,5.691-2.619c4.071,0,6.143,2.33,6.215,6.991v12.918
		h-4.39v-12.665c0-1.24-0.268-2.158-0.804-2.755c-0.536-0.596-1.412-0.895-2.628-0.895c-1.771,0-3.089,0.802-3.957,2.403v13.911
		h-4.39v-19.548H180.825z"/>
	<path fill="#F99DA2" d="M196.507,767.096c0-1.915,0.379-3.64,1.138-5.176c0.759-1.535,1.825-2.716,3.198-3.541
		s2.951-1.237,4.733-1.237c2.638,0,4.779,0.849,6.422,2.547c1.645,1.698,2.532,3.951,2.665,6.757l0.018,1.03
		c0,1.927-0.371,3.649-1.111,5.167c-0.741,1.518-1.801,2.691-3.18,3.522c-1.379,0.831-2.972,1.247-4.779,1.247
		c-2.758,0-4.965-0.919-6.622-2.755c-1.656-1.837-2.484-4.285-2.484-7.345V767.096z M200.897,767.475
		c0,2.012,0.416,3.586,1.247,4.725c0.831,1.138,1.987,1.707,3.469,1.707s2.635-0.578,3.459-1.734
		c0.825-1.156,1.238-2.849,1.238-5.077c0-1.975-0.424-3.541-1.274-4.697c-0.849-1.156-2.002-1.734-3.459-1.734
		c-1.434,0-2.572,0.569-3.415,1.708C201.319,763.51,200.897,765.211,200.897,767.475z"/>
	<path fill="#F99DA2" d="M235.567,770.998l3.107-13.495h4.282l-5.33,19.548h-3.613l-4.191-13.424l-4.119,13.424h-3.613
		l-5.348-19.548h4.282l3.162,13.351l4.011-13.351h3.306L235.567,770.998z"/>
	<path fill="#F99DA2" d="M257.843,772.426c0.819,0,1.451,0.231,1.897,0.695c0.445,0.464,0.668,1.045,0.668,1.743
		c0,0.687-0.223,1.256-0.668,1.708c-0.446,0.451-1.078,0.677-1.897,0.677c-0.783,0-1.403-0.223-1.861-0.668
		c-0.458-0.445-0.687-1.018-0.687-1.717c0-0.698,0.223-1.279,0.668-1.743C256.409,772.657,257.035,772.426,257.843,772.426z"/>
	<path fill="#F99DA2" d="M268.177,772.426c0.819,0,1.451,0.231,1.897,0.695c0.445,0.464,0.668,1.045,0.668,1.743
		c0,0.687-0.223,1.256-0.668,1.708c-0.446,0.451-1.078,0.677-1.897,0.677c-0.783,0-1.403-0.223-1.861-0.668
		c-0.458-0.445-0.687-1.018-0.687-1.717c0-0.698,0.223-1.279,0.668-1.743C266.743,772.657,267.369,772.426,268.177,772.426z"/>
	<path fill="#F99DA2" d="M278.51,772.426c0.819,0,1.451,0.231,1.897,0.695c0.445,0.464,0.668,1.045,0.668,1.743
		c0,0.687-0.223,1.256-0.668,1.708c-0.446,0.451-1.078,0.677-1.897,0.677c-0.783,0-1.403-0.223-1.861-0.668
		c-0.458-0.445-0.687-1.018-0.687-1.717c0-0.698,0.223-1.279,0.668-1.743C277.077,772.657,277.703,772.426,278.51,772.426z"/>
</g>
<g>
	<path fill="#F99DA2" d="M1841.97,85.478c-0.265,2.807-1.301,4.995-3.107,6.567c-1.807,1.571-4.21,2.357-7.208,2.357
		c-2.096,0-3.941-0.497-5.537-1.49c-1.597-0.994-2.828-2.406-3.695-4.237c-0.867-1.831-1.318-3.957-1.355-6.377v-2.457
		c0-2.481,0.439-4.667,1.319-6.558c0.879-1.891,2.142-3.348,3.784-4.372c1.645-1.023,3.545-1.536,5.701-1.536
		c2.902,0,5.238,0.786,7.01,2.357c1.77,1.572,2.8,3.797,3.089,6.676h-4.553c-0.217-1.891-0.769-3.255-1.653-4.092
		c-0.885-0.837-2.184-1.256-3.893-1.256c-1.988,0-3.514,0.727-4.58,2.179s-1.611,3.583-1.635,6.392v2.333
		c0,2.845,0.508,5.015,1.525,6.51c1.019,1.495,2.509,2.242,4.473,2.242c1.794,0,3.143-0.403,4.047-1.21
		c0.902-0.807,1.475-2.15,1.716-4.029H1841.97z"/>
	<path fill="#F99DA2" d="M1857.309,94.042c-0.193-0.373-0.361-0.981-0.506-1.825c-1.398,1.458-3.107,2.186-5.131,2.186
		c-1.964,0-3.566-0.56-4.807-1.68s-1.86-2.505-1.86-4.155c0-2.083,0.774-3.683,2.321-4.796c1.548-1.114,3.761-1.671,6.64-1.671
		h2.692v-1.283c0-1.012-0.283-1.822-0.85-2.43c-0.566-0.608-1.428-0.913-2.584-0.913c-1,0-1.818,0.25-2.457,0.75
		c-0.639,0.5-0.957,1.136-0.957,1.906h-4.391c0-1.072,0.355-2.075,1.066-3.008c0.711-0.934,1.678-1.665,2.899-2.195
		c1.223-0.53,2.587-0.795,4.093-0.795c2.287,0,4.112,0.575,5.474,1.726c1.36,1.15,2.06,2.767,2.096,4.851v8.816
		c0,1.759,0.247,3.162,0.741,4.209v0.307H1857.309z M1852.485,90.88c0.867,0,1.684-0.21,2.448-0.632
		c0.765-0.421,1.339-0.987,1.726-1.698v-3.686h-2.367c-1.626,0-2.849,0.283-3.668,0.849c-0.818,0.566-1.229,1.367-1.229,2.403
		c0,0.843,0.28,1.515,0.841,2.015C1850.795,90.63,1851.545,90.88,1852.485,90.88z"/>
	<path fill="#F99DA2" d="M1869.72,74.494l0.126,2.258c1.445-1.746,3.343-2.62,5.691-2.62c4.07,0,6.143,2.331,6.215,6.992v12.917
		h-4.391V81.377c0-1.24-0.268-2.159-0.804-2.755c-0.536-0.596-1.412-0.894-2.628-0.894c-1.771,0-3.09,0.801-3.957,2.403v13.911
		h-4.391V74.494H1869.72z"/>
	<path fill="#F99DA2" d="M1900.686,94.042h-4.553V67.737h4.553V94.042z"/>
	<path fill="#F99DA2" d="M1926.936,92.127c-1.289,1.518-3.119,2.276-5.492,2.276c-2.119,0-3.725-0.62-4.814-1.861
		c-1.09-1.24-1.635-3.035-1.635-5.384V74.494h4.391v12.61c0,2.481,1.029,3.722,3.089,3.722c2.132,0,3.571-0.765,4.317-2.294V74.494
		h4.391v19.548h-4.137L1926.936,92.127z"/>
	<path fill="#F99DA2" d="M1946.611,88.73c0-0.783-0.322-1.379-0.966-1.789c-0.645-0.409-1.715-0.771-3.207-1.084
		c-1.494-0.313-2.74-0.71-3.74-1.192c-2.192-1.06-3.288-2.595-3.288-4.607c0-1.686,0.71-3.095,2.132-4.228
		c1.421-1.132,3.228-1.698,5.42-1.698c2.336,0,4.225,0.578,5.664,1.734s2.158,2.656,2.158,4.499h-4.39
		c0-0.843-0.313-1.544-0.939-2.105c-0.626-0.56-1.458-0.84-2.493-0.84c-0.964,0-1.75,0.223-2.357,0.668
		c-0.608,0.446-0.912,1.042-0.912,1.789c0,0.675,0.282,1.199,0.849,1.572c0.565,0.374,1.71,0.75,3.433,1.129
		c1.723,0.379,3.074,0.831,4.057,1.354c0.98,0.524,1.709,1.154,2.186,1.888c0.476,0.735,0.713,1.626,0.713,2.674
		c0,1.759-0.729,3.183-2.186,4.273c-1.457,1.09-3.367,1.635-5.727,1.635c-1.603,0-3.029-0.289-4.282-0.867s-2.229-1.373-2.927-2.385
		c-0.699-1.012-1.048-2.102-1.048-3.27h4.264c0.06,1.036,0.452,1.833,1.175,2.394c0.723,0.56,1.68,0.84,2.872,0.84
		c1.156,0,2.035-0.22,2.638-0.659C1946.309,90.016,1946.611,89.441,1946.611,88.73z"/>
	<path fill="#F99DA2" d="M1963.358,94.403c-2.781,0-5.037-0.876-6.766-2.629c-1.729-1.752-2.592-4.085-2.592-7v-0.542
		c0-1.951,0.376-3.695,1.129-5.23c0.752-1.536,1.809-2.731,3.17-3.586c1.361-0.855,2.879-1.283,4.553-1.283
		c2.662,0,4.719,0.849,6.17,2.547s2.178,4.101,2.178,7.208v1.771h-12.773c0.133,1.614,0.672,2.891,1.617,3.83
		s2.135,1.409,3.568,1.409c2.011,0,3.648-0.813,4.914-2.439l2.366,2.258c-0.783,1.168-1.827,2.075-3.135,2.719
		C1966.45,94.081,1964.985,94.403,1963.358,94.403z M1962.834,77.656c-1.205,0-2.177,0.422-2.918,1.265
		c-0.74,0.843-1.213,2.018-1.418,3.523h8.365v-0.325c-0.098-1.469-0.488-2.581-1.175-3.333
		C1965.002,78.032,1964.051,77.656,1962.834,77.656z"/>
	<path fill="#F99DA2" d="M1989.32,69.742v4.751h3.45v3.252h-3.45v10.912c0,0.747,0.147,1.286,0.442,1.617
		c0.295,0.331,0.822,0.497,1.581,0.497c0.506,0,1.018-0.06,1.536-0.181v3.396c-1,0.277-1.964,0.416-2.891,0.416
		c-3.373,0-5.059-1.861-5.059-5.583V77.746h-3.217v-3.252h3.217v-4.751H1989.32z"/>
	<path fill="#F99DA2" d="M2000.448,76.626c1.433-1.662,3.245-2.493,5.438-2.493c4.166,0,6.28,2.379,6.341,7.136v12.773h-4.39v-12.61
		c0-1.349-0.293-2.304-0.877-2.863c-0.584-0.561-1.442-0.84-2.574-0.84c-1.759,0-3.071,0.783-3.938,2.349v13.965h-4.39v-27.75h4.39
		V76.626z"/>
	<path fill="#F99DA2" d="M2025.272,94.403c-2.782,0-5.037-0.876-6.766-2.629c-1.729-1.752-2.593-4.085-2.593-7v-0.542
		c0-1.951,0.376-3.695,1.13-5.23c0.752-1.536,1.809-2.731,3.17-3.586c1.361-0.855,2.879-1.283,4.553-1.283
		c2.662,0,4.719,0.849,6.17,2.547s2.177,4.101,2.177,7.208v1.771h-12.772c0.132,1.614,0.671,2.891,1.617,3.83
		c0.945,0.939,2.134,1.409,3.567,1.409c2.011,0,3.649-0.813,4.914-2.439l2.366,2.258c-0.783,1.168-1.827,2.075-3.135,2.719
		C2028.364,94.081,2026.898,94.403,2025.272,94.403z M2024.748,77.656c-1.205,0-2.178,0.422-2.918,1.265
		c-0.74,0.843-1.214,2.018-1.418,3.523h8.364v-0.325c-0.097-1.469-0.487-2.581-1.175-3.333
		C2026.916,78.032,2025.964,77.656,2024.748,77.656z"/>
	<path fill="#F99DA2" d="M1843.073,123.284h2.674c1.348-0.012,2.418-0.361,3.207-1.048c0.788-0.687,1.183-1.68,1.183-2.981
		c0-1.252-0.328-2.225-0.985-2.918c-0.656-0.692-1.658-1.039-3.008-1.039c-1.18,0-2.149,0.34-2.908,1.021
		c-0.759,0.68-1.139,1.569-1.139,2.665h-4.39c0-1.349,0.358-2.577,1.075-3.686c0.717-1.108,1.717-1.972,2.998-2.592
		c1.283-0.621,2.72-0.931,4.31-0.931c2.626,0,4.688,0.659,6.188,1.979c1.498,1.318,2.248,3.152,2.248,5.501
		c0,1.181-0.376,2.292-1.129,3.333c-0.752,1.042-1.725,1.828-2.918,2.358c1.445,0.494,2.545,1.271,3.297,2.331
		c0.754,1.06,1.13,2.325,1.13,3.794c0,2.361-0.81,4.24-2.431,5.637c-1.619,1.397-3.748,2.096-6.386,2.096
		c-2.529,0-4.601-0.674-6.215-2.023c-1.614-1.349-2.421-3.144-2.421-5.384h4.391c0,1.156,0.389,2.096,1.164,2.818
		c0.777,0.723,1.822,1.084,3.135,1.084c1.361,0,2.434-0.361,3.217-1.084c0.782-0.723,1.174-1.771,1.174-3.144
		c0-1.385-0.41-2.451-1.229-3.198c-0.819-0.747-2.035-1.12-3.649-1.12h-2.583V123.284z"/>
	<path fill="#F99DA2" d="M1859.729,138.442v-26.305h7.77c2.324,0,4.387,0.518,6.188,1.554c1.801,1.036,3.194,2.505,4.182,4.408
		c0.988,1.903,1.482,4.083,1.482,6.54v1.319c0,2.493-0.498,4.686-1.49,6.576c-0.994,1.891-2.41,3.349-4.246,4.372
		c-1.837,1.024-3.941,1.536-6.314,1.536H1859.729z M1864.3,115.823v18.97h2.981c2.396,0,4.236-0.75,5.52-2.249
		c1.281-1.5,1.936-3.652,1.959-6.459v-1.463c0-2.854-0.62-5.034-1.86-6.54c-1.241-1.505-3.042-2.258-5.401-2.258H1864.3z"/>
	<path fill="#F99DA2" d="M1909.809,128.867c0,3.023-0.686,5.435-2.059,7.235c-1.373,1.801-3.217,2.701-5.529,2.701
		c-2.144,0-3.859-0.705-5.148-2.114v9.268h-4.391v-27.063h4.047l0.182,1.987c1.288-1.565,3.041-2.349,5.257-2.349
		c2.385,0,4.255,0.888,5.61,2.665c1.354,1.776,2.031,4.243,2.031,7.398V128.867z M1905.438,128.487c0-1.951-0.389-3.499-1.166-4.643
		c-0.777-1.144-1.888-1.716-3.333-1.716c-1.795,0-3.083,0.741-3.866,2.222v8.672c0.795,1.518,2.096,2.276,3.902,2.276
		c1.396,0,2.49-0.563,3.279-1.689C1905.043,132.483,1905.438,130.776,1905.438,128.487z"/>
	<path fill="#F99DA2" d="M1923.756,122.905c-0.578-0.096-1.174-0.145-1.788-0.145c-2.012,0-3.366,0.771-4.065,2.313v13.369h-4.39
		v-19.548h4.191l0.108,2.186c1.06-1.698,2.529-2.547,4.408-2.547c0.626,0,1.145,0.084,1.554,0.253L1923.756,122.905z"/>
	<path fill="#F99DA2" d="M1926.539,113.817c0-0.674,0.213-1.234,0.641-1.68c0.428-0.445,1.039-0.668,1.834-0.668
		s1.409,0.223,1.843,0.668c0.434,0.446,0.65,1.006,0.65,1.68c0,0.663-0.217,1.213-0.65,1.653c-0.434,0.44-1.048,0.66-1.843,0.66
		s-1.406-0.22-1.834-0.66C1926.752,115.031,1926.539,114.48,1926.539,113.817z M1931.199,138.442h-4.39v-19.548h4.39V138.442z"/>
	<path fill="#F99DA2" d="M1940.053,118.894l0.126,2.258c1.445-1.746,3.343-2.62,5.69-2.62c4.071,0,6.143,2.331,6.215,6.992v12.917
		h-4.39v-12.665c0-1.24-0.269-2.159-0.804-2.755c-0.536-0.596-1.412-0.894-2.629-0.894c-1.771,0-3.09,0.801-3.957,2.403v13.911
		h-4.39v-19.548H1940.053z"/>
	<path fill="#F99DA2" d="M1962.057,114.142v4.751h3.451v3.252h-3.451v10.912c0,0.747,0.148,1.286,0.443,1.617
		c0.295,0.331,0.822,0.497,1.58,0.497c0.506,0,1.018-0.06,1.536-0.181v3.396c-1,0.277-1.964,0.416-2.891,0.416
		c-3.372,0-5.059-1.861-5.059-5.583v-11.075h-3.216v-3.252h3.216v-4.751H1962.057z"/>
	<path fill="#F99DA2" d="M1977.468,138.803c-2.782,0-5.038-0.876-6.767-2.629c-1.728-1.752-2.592-4.085-2.592-7v-0.542
		c0-1.951,0.377-3.695,1.129-5.23c0.753-1.536,1.81-2.731,3.171-3.586c1.36-0.855,2.878-1.283,4.553-1.283
		c2.661,0,4.718,0.849,6.169,2.547c1.452,1.698,2.178,4.101,2.178,7.209v1.771h-12.773c0.133,1.614,0.672,2.891,1.617,3.83
		s2.135,1.409,3.568,1.409c2.012,0,3.649-0.813,4.914-2.439l2.367,2.258c-0.783,1.168-1.828,2.075-3.135,2.719
		C1980.561,138.481,1979.094,138.803,1977.468,138.803z M1976.944,122.055c-1.204,0-2.176,0.422-2.918,1.265
		c-0.74,0.843-1.213,2.018-1.418,3.523h8.365v-0.325c-0.097-1.469-0.488-2.581-1.174-3.333
		C1979.112,122.432,1978.16,122.055,1976.944,122.055z"/>
	<path fill="#F99DA2" d="M1998.949,122.905c-0.578-0.096-1.175-0.145-1.789-0.145c-2.012,0-3.367,0.771-4.064,2.313v13.369h-4.391
		v-19.548h4.191l0.108,2.186c1.06-1.698,2.529-2.547,4.408-2.547c0.626,0,1.144,0.084,1.554,0.253L1998.949,122.905z"/>
	<path fill="#F99DA2" d="M2005.796,130.727c0-1.604,0.198-2.881,0.597-3.834c0.396-0.952,1.183-1.998,2.357-3.137
		c1.174-1.14,1.918-1.95,2.23-2.433c0.482-0.733,0.723-1.527,0.723-2.381c0-1.13-0.279-1.993-0.84-2.588
		c-0.56-0.595-1.382-0.893-2.466-0.893c-1.036,0-1.87,0.291-2.502,0.873c-0.633,0.582-0.948,1.372-0.948,2.367h-4.391
		c0.023-2.134,0.75-3.821,2.177-5.063c1.428-1.241,3.315-1.862,5.664-1.862c2.421,0,4.309,0.615,5.664,1.844
		c1.354,1.23,2.032,2.948,2.032,5.154c0,1.965-0.916,3.9-2.746,5.805l-2.223,2.188c-0.795,0.904-1.204,2.225-1.229,3.96H2005.796z
		 M2005.489,136.337c0-0.708,0.223-1.281,0.669-1.719c0.445-0.438,1.048-0.657,1.807-0.657c0.771,0,1.379,0.225,1.825,0.675
		c0.445,0.45,0.668,1.017,0.668,1.701c0,0.66-0.217,1.211-0.65,1.655c-0.434,0.444-1.048,0.666-1.843,0.666
		s-1.406-0.222-1.834-0.666C2005.703,137.549,2005.489,136.997,2005.489,136.337z"/>
</g>
<g>
	<path fill="#F99DA2" d="M1899.983,911.603h-10.189l-2.132,6.125h-4.752l9.937-26.305h4.102l9.954,26.305h-4.77L1899.983,911.603z
		 M1891.075,907.918h7.624l-3.812-10.912L1891.075,907.918z"/>
	<path fill="#F99DA2" d="M1912.665,898.18l0.126,2.258c1.445-1.746,3.343-2.619,5.691-2.619c4.07,0,6.143,2.33,6.215,6.991v12.918
		h-4.391v-12.665c0-1.24-0.268-2.158-0.804-2.755c-0.536-0.596-1.412-0.895-2.629-0.895c-1.771,0-3.089,0.802-3.956,2.403v13.911
		h-4.391V898.18H1912.665z"/>
	<path fill="#F99DA2" d="M1936.007,911.441l3.975-13.261h4.679l-7.769,22.511c-1.192,3.288-3.216,4.932-6.07,4.932
		c-0.639,0-1.343-0.108-2.113-0.326v-3.413l0.831,0.054c1.107,0,1.941-0.201,2.502-0.604c0.56-0.403,1.003-1.08,1.328-2.031
		l0.632-1.679l-6.865-19.442h4.733L1936.007,911.441z"/>
	<path fill="#F99DA2" d="M1946.088,907.773c0-1.915,0.379-3.64,1.138-5.176c0.759-1.535,1.825-2.716,3.198-3.541
		s2.95-1.237,4.733-1.237c2.638,0,4.778,0.849,6.422,2.547c1.645,1.698,2.532,3.951,2.665,6.757l0.019,1.03
		c0,1.927-0.371,3.649-1.111,5.167c-0.741,1.518-1.801,2.691-3.18,3.522s-2.972,1.247-4.778,1.247c-2.759,0-4.966-0.919-6.622-2.755
		c-1.655-1.837-2.483-4.285-2.483-7.345V907.773z M1950.478,908.153c0,2.012,0.416,3.586,1.247,4.725
		c0.831,1.138,1.987,1.707,3.469,1.707s2.635-0.578,3.459-1.734c0.825-1.156,1.238-2.849,1.238-5.077
		c0-1.975-0.425-3.541-1.274-4.697c-0.849-1.156-2.002-1.734-3.459-1.734c-1.434,0-2.572,0.569-3.415,1.708
		C1950.9,904.187,1950.478,905.888,1950.478,908.153z"/>
	<path fill="#F99DA2" d="M1972.049,898.18l0.127,2.258c1.445-1.746,3.342-2.619,5.69-2.619c4.071,0,6.143,2.33,6.215,6.991v12.918
		h-4.39v-12.665c0-1.24-0.269-2.158-0.805-2.755c-0.535-0.596-1.412-0.895-2.628-0.895c-1.771,0-3.09,0.802-3.957,2.403v13.911
		h-4.39V898.18H1972.049z"/>
	<path fill="#F99DA2" d="M1997.161,918.09c-2.782,0-5.037-0.876-6.766-2.629c-1.729-1.752-2.593-4.086-2.593-7.001v-0.542
		c0-1.951,0.377-3.694,1.13-5.229c0.752-1.536,1.809-2.731,3.17-3.587c1.361-0.854,2.879-1.282,4.553-1.282
		c2.662,0,4.719,0.849,6.17,2.547s2.177,4.102,2.177,7.209v1.771h-12.772c0.132,1.614,0.671,2.891,1.617,3.83
		c0.945,0.939,2.134,1.409,3.567,1.409c2.012,0,3.649-0.813,4.914-2.439l2.367,2.259c-0.783,1.168-1.828,2.074-3.135,2.719
		S1998.787,918.09,1997.161,918.09z M1996.638,901.342c-1.205,0-2.177,0.422-2.918,1.265c-0.74,0.844-1.214,2.018-1.418,3.523h8.364
		v-0.325c-0.097-1.47-0.487-2.581-1.174-3.333C1998.806,901.719,1997.854,901.342,1996.638,901.342z"/>
	<path fill="#F99DA2" d="M2021.948,900.312c1.434-1.662,3.246-2.493,5.438-2.493c4.167,0,6.28,2.379,6.341,7.136v12.773h-4.39
		v-12.61c0-1.349-0.292-2.304-0.877-2.863c-0.584-0.561-1.442-0.841-2.574-0.841c-1.759,0-3.071,0.783-3.938,2.349v13.966h-4.39
		v-27.75h4.39V900.312z"/>
	<path fill="#F99DA2" d="M2046.772,918.09c-2.782,0-5.037-0.876-6.766-2.629c-1.729-1.752-2.593-4.086-2.593-7.001v-0.542
		c0-1.951,0.377-3.694,1.13-5.229c0.752-1.536,1.809-2.731,3.17-3.587c1.361-0.854,2.879-1.282,4.553-1.282
		c2.662,0,4.719,0.849,6.17,2.547s2.177,4.102,2.177,7.209v1.771h-12.772c0.132,1.614,0.671,2.891,1.617,3.83
		c0.945,0.939,2.134,1.409,3.567,1.409c2.012,0,3.649-0.813,4.914-2.439l2.367,2.259c-0.783,1.168-1.828,2.074-3.135,2.719
		S2048.398,918.09,2046.772,918.09z M2046.248,901.342c-1.205,0-2.177,0.422-2.918,1.265c-0.74,0.844-1.214,2.018-1.418,3.523h8.364
		v-0.325c-0.097-1.47-0.487-2.581-1.174-3.333C2048.416,901.719,2047.464,901.342,2046.248,901.342z"/>
	<path fill="#F99DA2" d="M2068.253,902.191c-0.578-0.097-1.175-0.145-1.789-0.145c-2.012,0-3.366,0.771-4.064,2.313v13.369h-4.391
		V898.18h4.191l0.108,2.186c1.06-1.698,2.529-2.547,4.408-2.547c0.626,0,1.145,0.084,1.554,0.253L2068.253,902.191z"/>
	<path fill="#F99DA2" d="M2079.291,918.09c-2.782,0-5.037-0.876-6.766-2.629c-1.729-1.752-2.593-4.086-2.593-7.001v-0.542
		c0-1.951,0.377-3.694,1.13-5.229c0.752-1.536,1.809-2.731,3.17-3.587c1.361-0.854,2.879-1.282,4.553-1.282
		c2.662,0,4.719,0.849,6.17,2.547s2.177,4.102,2.177,7.209v1.771h-12.772c0.132,1.614,0.671,2.891,1.617,3.83
		c0.945,0.939,2.134,1.409,3.567,1.409c2.012,0,3.649-0.813,4.914-2.439l2.367,2.259c-0.783,1.168-1.828,2.074-3.135,2.719
		S2080.917,918.09,2079.291,918.09z M2078.768,901.342c-1.205,0-2.177,0.422-2.918,1.265c-0.74,0.844-1.214,2.018-1.418,3.523h8.364
		v-0.325c-0.097-1.47-0.487-2.581-1.174-3.333C2080.936,901.719,2079.984,901.342,2078.768,901.342z"/>
	<path fill="#F99DA2" d="M1894.743,952.21c0-3.011,0.698-5.43,2.096-7.254c1.396-1.825,3.27-2.737,5.618-2.737
		c2.071,0,3.746,0.723,5.022,2.168v-10.009h4.391v27.75h-3.975l-0.217-2.023c-1.313,1.59-3.065,2.385-5.258,2.385
		c-2.288,0-4.14-0.921-5.556-2.764C1895.45,957.883,1894.743,955.378,1894.743,952.21z M1899.133,952.589
		c0,1.987,0.383,3.538,1.147,4.652s1.852,1.671,3.261,1.671c1.795,0,3.107-0.801,3.938-2.402v-8.347
		c-0.807-1.565-2.107-2.349-3.902-2.349c-1.421,0-2.518,0.563-3.288,1.688C1899.519,948.63,1899.133,950.325,1899.133,952.589z"/>
	<path fill="#F99DA2" d="M1915.628,952.174c0-1.915,0.379-3.641,1.138-5.177c0.759-1.535,1.825-2.716,3.198-3.541
		c1.373-0.824,2.95-1.237,4.733-1.237c2.638,0,4.778,0.85,6.422,2.548c1.645,1.698,2.532,3.95,2.665,6.757l0.019,1.029
		c0,1.928-0.371,3.649-1.111,5.167c-0.741,1.518-1.801,2.692-3.18,3.523s-2.972,1.246-4.778,1.246c-2.759,0-4.966-0.918-6.622-2.755
		c-1.655-1.837-2.483-4.284-2.483-7.344V952.174z M1920.018,952.553c0,2.012,0.416,3.586,1.247,4.725
		c0.831,1.138,1.987,1.707,3.469,1.707s2.635-0.578,3.459-1.734c0.825-1.156,1.238-2.848,1.238-5.076
		c0-1.976-0.425-3.541-1.274-4.697c-0.849-1.156-2.002-1.734-3.459-1.734c-1.434,0-2.572,0.568-3.415,1.707
		C1920.44,948.587,1920.018,950.289,1920.018,952.553z"/>
	<path fill="#F99DA2" d="M1946.124,962.489c-2.782,0-5.038-0.876-6.767-2.629c-1.728-1.752-2.592-4.085-2.592-7v-0.542
		c0-1.951,0.376-3.695,1.129-5.23c0.753-1.536,1.81-2.73,3.171-3.586c1.36-0.855,2.878-1.283,4.553-1.283
		c2.661,0,4.718,0.85,6.169,2.548c1.452,1.698,2.178,4.101,2.178,7.208v1.771h-12.773c0.133,1.614,0.672,2.891,1.617,3.83
		s2.135,1.409,3.568,1.409c2.011,0,3.649-0.813,4.914-2.438l2.366,2.258c-0.783,1.169-1.827,2.075-3.135,2.719
		C1949.216,962.167,1947.75,962.489,1946.124,962.489z M1945.6,945.742c-1.204,0-2.177,0.422-2.918,1.265
		c-0.74,0.843-1.213,2.018-1.418,3.522h8.365v-0.325c-0.097-1.469-0.488-2.58-1.175-3.333S1946.817,945.742,1945.6,945.742z"/>
	<path fill="#F99DA2" d="M1968.327,956.816c0-0.782-0.322-1.379-0.966-1.788c-0.645-0.409-1.714-0.771-3.207-1.084
		c-1.494-0.313-2.74-0.711-3.74-1.192c-2.192-1.06-3.288-2.596-3.288-4.607c0-1.686,0.711-3.095,2.132-4.228
		c1.421-1.132,3.228-1.698,5.42-1.698c2.337,0,4.225,0.578,5.664,1.734s2.159,2.656,2.159,4.499h-4.391
		c0-0.843-0.313-1.545-0.939-2.105c-0.626-0.56-1.457-0.84-2.493-0.84c-0.964,0-1.749,0.224-2.357,0.669s-0.912,1.042-0.912,1.788
		c0,0.675,0.282,1.199,0.849,1.572s1.71,0.749,3.433,1.129c1.723,0.379,3.074,0.831,4.057,1.354c0.981,0.524,1.71,1.154,2.186,1.889
		s0.714,1.626,0.714,2.674c0,1.759-0.729,3.183-2.187,4.272s-3.366,1.635-5.727,1.635c-1.603,0-3.029-0.289-4.282-0.867
		s-2.229-1.373-2.927-2.385s-1.048-2.102-1.048-3.27h4.264c0.061,1.036,0.452,1.833,1.175,2.394c0.723,0.56,1.68,0.84,2.872,0.84
		c1.156,0,2.035-0.22,2.638-0.659S1968.327,957.527,1968.327,956.816z"/>
	<path fill="#F99DA2" d="M1987.225,962.128v-16.296h-2.98v-3.252h2.98v-1.788c0-2.168,0.603-3.842,1.807-5.022
		s2.891-1.771,5.059-1.771c0.771,0,1.59,0.108,2.457,0.325l-0.108,3.433c-0.481-0.097-1.042-0.145-1.68-0.145
		c-2.096,0-3.144,1.078-3.144,3.233v1.734h3.975v3.252h-3.975v16.296H1987.225z"/>
	<path fill="#F99DA2" d="M1997.975,952.174c0-1.915,0.379-3.641,1.138-5.177c0.759-1.535,1.825-2.716,3.198-3.541
		c1.373-0.824,2.95-1.237,4.733-1.237c2.638,0,4.778,0.85,6.422,2.548c1.645,1.698,2.532,3.95,2.665,6.757l0.019,1.029
		c0,1.928-0.371,3.649-1.111,5.167c-0.741,1.518-1.801,2.692-3.18,3.523s-2.972,1.246-4.778,1.246c-2.759,0-4.966-0.918-6.622-2.755
		c-1.655-1.837-2.483-4.284-2.483-7.344V952.174z M2002.365,952.553c0,2.012,0.416,3.586,1.247,4.725
		c0.831,1.138,1.987,1.707,3.469,1.707s2.635-0.578,3.459-1.734c0.825-1.156,1.238-2.848,1.238-5.076
		c0-1.976-0.425-3.541-1.274-4.697c-0.849-1.156-2.002-1.734-3.459-1.734c-1.434,0-2.572,0.568-3.415,1.707
		C2002.786,948.587,2002.365,950.289,2002.365,952.553z"/>
	<path fill="#F99DA2" d="M2019.04,952.174c0-1.915,0.379-3.641,1.138-5.177c0.759-1.535,1.825-2.716,3.198-3.541
		c1.373-0.824,2.95-1.237,4.733-1.237c2.638,0,4.778,0.85,6.422,2.548c1.645,1.698,2.532,3.95,2.665,6.757l0.019,1.029
		c0,1.928-0.371,3.649-1.111,5.167c-0.741,1.518-1.801,2.692-3.18,3.523s-2.972,1.246-4.778,1.246c-2.759,0-4.966-0.918-6.622-2.755
		c-1.655-1.837-2.483-4.284-2.483-7.344V952.174z M2023.43,952.553c0,2.012,0.416,3.586,1.247,4.725
		c0.831,1.138,1.987,1.707,3.469,1.707s2.635-0.578,3.459-1.734c0.825-1.156,1.238-2.848,1.238-5.076
		c0-1.976-0.425-3.541-1.274-4.697c-0.849-1.156-2.002-1.734-3.459-1.734c-1.434,0-2.572,0.568-3.415,1.707
		C2023.852,948.587,2023.43,950.289,2023.43,952.553z"/>
	<path fill="#F99DA2" d="M2040.106,952.21c0-3.011,0.698-5.43,2.096-7.254c1.396-1.825,3.27-2.737,5.618-2.737
		c2.071,0,3.746,0.723,5.022,2.168v-10.009h4.391v27.75h-3.975l-0.217-2.023c-1.313,1.59-3.065,2.385-5.258,2.385
		c-2.288,0-4.14-0.921-5.556-2.764C2040.813,957.883,2040.106,955.378,2040.106,952.21z M2044.495,952.589
		c0,1.987,0.383,3.538,1.147,4.652s1.852,1.671,3.261,1.671c1.795,0,3.107-0.801,3.938-2.402v-8.347
		c-0.807-1.565-2.107-2.349-3.902-2.349c-1.421,0-2.518,0.563-3.288,1.688C2044.881,948.63,2044.495,950.325,2044.495,952.589z"/>
	<path fill="#F99DA2" d="M2065.886,954.414c0-1.604,0.199-2.882,0.597-3.834s1.183-1.998,2.357-3.138
		c1.174-1.14,1.918-1.95,2.231-2.433c0.481-0.732,0.723-1.526,0.723-2.381c0-1.13-0.28-1.993-0.841-2.588
		c-0.56-0.596-1.382-0.894-2.466-0.894c-1.036,0-1.87,0.291-2.502,0.873c-0.633,0.582-0.948,1.372-0.948,2.367h-4.391
		c0.024-2.134,0.75-3.821,2.177-5.063c1.428-1.241,3.315-1.862,5.664-1.862c2.421,0,4.309,0.615,5.664,1.845
		c1.354,1.229,2.032,2.947,2.032,5.154c0,1.965-0.915,3.899-2.746,5.805l-2.222,2.188c-0.795,0.904-1.205,2.225-1.229,3.961
		H2065.886z M2065.579,960.023c0-0.708,0.223-1.28,0.668-1.719c0.445-0.438,1.048-0.657,1.807-0.657
		c0.771,0,1.379,0.226,1.825,0.675c0.445,0.45,0.668,1.018,0.668,1.701c0,0.66-0.217,1.212-0.65,1.655
		c-0.434,0.444-1.048,0.666-1.843,0.666s-1.406-0.222-1.834-0.666C2065.793,961.235,2065.579,960.683,2065.579,960.023z"/>
	<path fill="#F99DA2" d="M1901.22,1006.528h-4.553v-26.305h4.553V1006.528z"/>
	<path fill="#F99DA2" d="M1907.326,988.028l-2.24-1.392c1.084-1.577,1.645-3.245,1.681-5.004v-2.854h3.848v2.493
		c0,1.24-0.315,2.49-0.948,3.749C1909.034,986.278,1908.254,987.281,1907.326,988.028z"/>
	<path fill="#F99DA2" d="M1918.202,986.98l0.127,2.041c1.373-1.602,3.252-2.402,5.637-2.402c2.613,0,4.401,1,5.365,2.999
		c1.421-1.999,3.421-2.999,5.998-2.999c2.156,0,3.761,0.596,4.815,1.788c1.054,1.192,1.592,2.951,1.616,5.275v12.846h-4.39v-12.719
		c0-1.24-0.271-2.15-0.813-2.729s-1.439-0.867-2.691-0.867c-1,0-1.815,0.269-2.448,0.805c-0.632,0.535-1.075,1.237-1.328,2.104
		l0.019,13.405h-4.391v-12.863c-0.061-2.301-1.234-3.451-3.522-3.451c-1.759,0-3.006,0.717-3.74,2.15v14.164h-4.39V986.98H1918.202z
		"/>
	<path fill="#F99DA2" d="M1959.81,989.112c1.433-1.662,3.245-2.493,5.438-2.493c4.167,0,6.281,2.379,6.342,7.136v12.773h-4.391
		v-12.61c0-1.349-0.292-2.304-0.876-2.863c-0.584-0.561-1.442-0.841-2.574-0.841c-1.759,0-3.071,0.783-3.938,2.349v13.966h-4.391
		v-27.75h4.391V989.112z"/>
	<path fill="#F99DA2" d="M1987.866,1004.613c-1.289,1.518-3.119,2.276-5.492,2.276c-2.12,0-3.725-0.62-4.814-1.861
		c-1.09-1.24-1.635-3.035-1.635-5.384V986.98h4.39v12.61c0,2.481,1.03,3.722,3.09,3.722c2.132,0,3.57-0.765,4.317-2.295V986.98
		h4.391v19.548h-4.138L1987.866,1004.613z"/>
	<path fill="#F99DA2" d="M2000.657,986.98l0.127,2.258c1.445-1.746,3.342-2.619,5.69-2.619c4.071,0,6.143,2.33,6.215,6.991v12.918
		h-4.39v-12.665c0-1.24-0.269-2.158-0.805-2.755c-0.535-0.596-1.412-0.895-2.628-0.895c-1.771,0-3.09,0.802-3.957,2.403v13.911
		h-4.39V986.98H2000.657z"/>
	<path fill="#F99DA2" d="M2016.394,996.609c0-3.035,0.714-5.459,2.141-7.271c1.428-1.813,3.321-2.719,5.682-2.719
		c2.229,0,3.98,0.776,5.258,2.33l0.198-1.969h3.957v18.951c0,2.565-0.798,4.589-2.394,6.07c-1.597,1.481-3.749,2.223-6.459,2.223
		c-1.434,0-2.834-0.298-4.2-0.895c-1.367-0.596-2.406-1.376-3.117-2.34l2.078-2.638c1.349,1.602,3.011,2.403,4.986,2.403
		c1.457,0,2.607-0.395,3.45-1.184s1.265-1.948,1.265-3.478v-1.319c-1.265,1.409-2.951,2.114-5.059,2.114
		c-2.288,0-4.158-0.909-5.609-2.729C2017.119,1002.343,2016.394,999.825,2016.394,996.609z M2020.766,996.989
		c0,1.963,0.4,3.508,1.201,4.634s1.912,1.689,3.333,1.689c1.771,0,3.083-0.759,3.938-2.276v-8.6
		c-0.831-1.481-2.132-2.223-3.902-2.223c-1.445,0-2.568,0.572-3.369,1.717S2020.766,994.761,2020.766,996.989z"/>
	<path fill="#F99DA2" d="M2048.371,990.991c-0.578-0.097-1.175-0.145-1.789-0.145c-2.012,0-3.366,0.771-4.064,2.313v13.369h-4.391
		V986.98h4.191l0.108,2.186c1.06-1.698,2.529-2.547,4.408-2.547c0.626,0,1.145,0.084,1.554,0.253L2048.371,990.991z"/>
	<path fill="#F99DA2" d="M2058.308,1000.241l3.975-13.261h4.679l-7.769,22.511c-1.192,3.288-3.216,4.932-6.07,4.932
		c-0.639,0-1.343-0.108-2.113-0.326v-3.413l0.831,0.054c1.107,0,1.941-0.201,2.502-0.604c0.56-0.403,1.003-1.08,1.328-2.031
		l0.632-1.679l-6.865-19.442h4.733L2058.308,1000.241z"/>
	<path fill="#F99DA2" d="M2069.816,1004.46c0-0.685,0.223-1.251,0.669-1.701c0.445-0.45,1.054-0.675,1.824-0.675
		s1.379,0.225,1.825,0.675c0.445,0.45,0.668,1.017,0.668,1.701c0,0.659-0.217,1.211-0.65,1.655
		c-0.434,0.443-1.048,0.666-1.843,0.666s-1.409-0.223-1.843-0.666C2070.032,1005.671,2069.816,1005.119,2069.816,1004.46z
		 M2074.134,998.796h-3.776l-0.415-18.572h4.625L2074.134,998.796z"/>
</g>
<path fill="#F99DA2" d="M2542.489,1009.278c-0.214-0.79-0.362-1.447-0.57-2.085c-1.767-5.431-4.428-10.308-8.886-14.025
	c-2.059-1.716-4.367-2.871-7.148-2.91c-1.434-0.02-2.496-1.251-2.457-2.635c0.04-1.395,1.13-2.494,2.586-2.517
	c3.127-0.051,5.941,0.959,8.515,2.667c3.836,2.545,6.627,6.035,8.907,9.975c0.377,0.652,0.735,1.315,1.104,1.972
	c0.015,0.026,0.063,0.033,0.016,0.01c0.922-2.476,1.729-5.012,2.795-7.434c2.338-5.315,5.739-9.796,10.753-12.899
	c3.671-2.272,7.685-3.364,11.993-3.366c1.539-0.001,2.684,1.024,2.69,2.507c0.021,5.484-1.128,10.653-4.419,15.167
	c-3.354,4.599-8.041,6.954-13.56,7.793c-1.49,0.226-3.01,0.24-4.512,0.402c-0.285,0.031-0.743,0.261-0.785,0.466
	c-0.458,2.281-0.85,4.575-1.305,7.119c0.64-0.241,0.995-0.37,1.346-0.508c6.752-2.648,13.736-3.863,20.94-2.787
	c8.761,1.309,15.318,6.148,20.007,13.517c4.936,7.756,6.609,16.316,5.205,25.339c-2.491,16.009-10.26,29.009-23.142,38.841
	c-4.897,3.738-10.478,5.974-16.74,6.18c-3.643,0.12-6.864-1.007-9.667-3.333c-0.163-0.135-0.336-0.26-0.482-0.373
	c-0.113,0.025-0.2,0.018-0.247,0.059c-5.403,4.685-11.486,4.287-17.704,2.238c-6.781-2.234-12.218-6.516-16.924-11.747
	c-7.613-8.463-12.873-18.184-14.969-29.435c-2.137-11.472-0.157-22.113,7.419-31.256c6.453-7.788,14.907-11.081,24.99-10.286
	c4.699,0.37,9.237,1.367,13.603,3.141C2541.995,1009.14,2542.159,1009.177,2542.489,1009.278z M2590.965,1039.806
	c-0.077-6.377-1.401-12.108-4.706-17.243c-4.901-7.615-11.802-11.678-21.002-11.545c-6.379,0.092-12.386,1.595-17.999,4.625
	c-1.072,0.579-2.061,0.701-3.161,0.103c-4.968-2.7-10.271-4.207-15.921-4.646c-10.2-0.792-18.046,3.094-23.429,11.747
	c-4.037,6.49-5.308,13.685-4.199,21.163c1.992,13.432,8.235,24.657,18.453,33.595c4.347,3.802,9.299,6.512,15.17,7.201
	c3.662,0.429,6.768-0.478,9.019-3.6c1.48-2.054,3.302-2.044,4.795,0.005c1.834,2.517,4.292,3.753,7.404,3.681
	c5.195-0.12,9.726-2.121,13.883-5.048c7.361-5.182,12.617-12.125,16.527-20.144
	C2588.909,1053.323,2590.854,1046.637,2590.965,1039.806z M2551.276,996.662c8.723,0.204,16.267-6.863,16.019-14.943
	C2561.274,981.53,2553.551,988.706,2551.276,996.662z"/>
<path fill="none" stroke="#F99DA2" stroke-width="5" stroke-miterlimit="10" d="M2087.238,1092.587
	c0.018,3.17-0.409,6.105-3.698,7.456c-3.251,1.335-5.624-0.32-7.892-2.604c-14.156-14.253-28.401-28.418-42.557-42.672
	c-1.517-1.528-2.806-2.058-5.082-1.566c-35.197,7.598-70.015,6.244-104.168-5.419c-26.705-9.119-50.159-23.404-67.221-46.403
	c-20.714-27.921-24.924-58.17-10.101-90.067c9.897-21.297,26.271-37.038,46.393-48.541c48.5-27.726,99.704-31.262,152.49-14.879
	c25.658,7.963,48.159,21.573,65.514,42.499c20.063,24.192,27.546,51.564,18.37,82.249c-6.695,22.39-21.079,39.42-39.554,53.202
	c-1.872,1.397-2.588,2.806-2.563,5.103c0.111,10.33,0.049,20.662,0.048,30.994
	C2087.217,1072.154,2087.182,1082.37,2087.238,1092.587z"/>
<path fill="none" stroke="#F99DA2" stroke-width="5" stroke-miterlimit="10" d="M301.487,858.687c0.02,3.647-0.47,7.026-4.256,8.58
	c-3.741,1.537-6.472-0.368-9.082-2.996c-16.291-16.403-32.684-32.703-48.974-49.107c-1.746-1.758-3.229-2.368-5.848-1.802
	c-40.504,8.744-80.573,7.185-119.876-6.236c-30.732-10.495-57.723-26.933-77.357-53.401C12.256,721.594,7.411,686.784,24.47,650.078
	c11.39-24.508,30.232-42.623,53.389-55.861c55.814-31.906,114.739-35.976,175.484-17.123c29.527,9.164,55.421,24.826,75.393,48.907
	c23.089,27.84,31.7,59.339,21.14,94.652c-7.705,25.766-24.258,45.365-45.519,61.224c-2.155,1.607-2.978,3.229-2.95,5.872
	c0.128,11.888,0.056,23.778,0.056,35.667C301.463,835.173,301.422,846.931,301.487,858.687z"/>
<path fill="none" stroke="#F99DA2" stroke-width="5" stroke-miterlimit="10" d="M873.095,205.302c0-9.062-0.055-18.124,0.042-27.185
	c0.022-2.015-0.606-3.251-2.248-4.476c-16.205-12.088-28.821-27.026-34.694-46.665c-8.048-26.915-1.485-50.923,16.113-72.142
	c15.222-18.354,34.958-30.292,57.464-37.277c46.299-14.37,91.211-11.268,133.752,13.051c17.65,10.09,32.011,23.897,40.692,42.577
	c13.002,27.977,9.309,54.509-8.859,79c-14.965,20.173-35.537,32.703-58.961,40.701c-29.956,10.229-60.496,11.417-91.368,4.753
	c-1.996-0.431-3.127,0.034-4.458,1.374c-12.416,12.503-24.911,24.927-37.328,37.429c-1.989,2.003-4.071,3.455-6.922,2.284
	c-2.885-1.185-3.259-3.76-3.244-6.54C873.127,223.225,873.096,214.264,873.095,205.302z"/>
<path fill="none" stroke="#F99DA2" stroke-width="5" stroke-miterlimit="10" d="M2734.334,698.041
	c0,124.388-26.304,196.005-121,294.008"/>
<path fill="none" stroke="#F99DA2" stroke-width="5" stroke-miterlimit="10" d="M869.334,281.114
	c123.203,0,224.845,32.179,338.807,64.358c58.521,13.791,120.122,27.582,175.564,48.269c40.041,16.09,67.761,41.373,104.722,55.164"
	/>
<g>
	<g>
		<path fill="none" stroke="#F99DA2" stroke-width="5" stroke-miterlimit="10" d="M1544.334,484.114
			c35.98,3.787,48.651,47.022,75.363,65.189"/>
		<g>
			<polygon fill="#F99DA2" points="1594.438,554.928 1593.965,549.946 1618.51,547.644 1614.421,523.329 1619.356,522.504 
				1624.331,552.118 			"/>
		</g>
	</g>
</g>
<g>
	<g>
		<path fill="none" stroke="#F99DA2" stroke-width="5" stroke-miterlimit="10" d="M760.334,363.114
			c-227.512,59-366.348,314.616-369.811,457.664"/>
		<g>
			<polygon fill="#F99DA2" points="370.989,803.336 374.796,800.088 390.773,818.863 408.334,801.555 411.843,805.123 
				390.452,826.198 			"/>
		</g>
	</g>
</g>
<path fill="none" stroke="#F99DA2" stroke-width="7" stroke-linecap="round" stroke-miterlimit="10" d="M1178.881,783.04
	c0,0,56.344-62.381,56.344-104.64c0-31.15-25.194-56.345-56.344-56.345s-56.345,25.194-56.345,56.345
	C1122.536,720.659,1178.881,783.04,1178.881,783.04"/>
<path fill="#FFFFFF" d="M1178.881,757.927c-16.742-21.491-40.246-56.586-40.246-79.526c0-22.216,18.03-40.246,40.246-40.246
	c22.216,0,40.246,18.03,40.246,40.246C1219.127,701.582,1195.945,736.274,1178.881,757.927"/>
<circle fill="none" stroke="#F99DA2" stroke-width="7" stroke-miterlimit="10" cx="1178.881" cy="678.4" r="20.123"/>
<path fill="none" stroke="#F99DA2" stroke-width="7" stroke-linecap="round" stroke-miterlimit="10" d="M1713.632,723.154
	c0,0,56.344-62.381,56.344-104.64c0-31.15-25.194-56.345-56.344-56.345s-56.345,25.194-56.345,56.345
	C1657.287,660.773,1713.632,723.154,1713.632,723.154"/>
<path fill="#FFFFFF" d="M1713.632,698.041c-16.742-21.491-40.246-56.586-40.246-79.526c0-22.216,18.03-40.246,40.246-40.246
	c22.216,0,40.246,18.03,40.246,40.246C1753.878,641.696,1730.696,676.388,1713.632,698.041"/>
<circle fill="none" stroke="#F99DA2" stroke-width="7" stroke-miterlimit="10" cx="1713.632" cy="618.514" r="20.123"/>
<path fill="none" stroke="#F99DA2" stroke-width="7" stroke-linecap="round" stroke-miterlimit="10" d="M370.334,1017.162
	c0,0,56.345-62.381,56.345-104.64c0-31.151-25.194-56.345-56.345-56.345s-56.345,25.194-56.345,56.345
	C313.99,954.78,370.334,1017.162,370.334,1017.162"/>
<path fill="#FFFFFF" d="M370.334,992.048c-16.742-21.491-40.246-56.586-40.246-79.526c0-22.216,18.03-40.246,40.246-40.246
	s40.246,18.03,40.246,40.246C410.58,935.704,387.399,970.396,370.334,992.048"/>
<circle fill="none" stroke="#F99DA2" stroke-width="7" stroke-miterlimit="10" cx="370.334" cy="912.522" r="20.123"/>
<path fill="none" stroke="#F99DA2" stroke-width="7" stroke-linecap="round" stroke-miterlimit="10" d="M2164.38,1204.285
	c0,0,56.345-62.381,56.345-104.64c0-31.15-25.194-56.344-56.345-56.344c-31.15,0-56.344,25.194-56.344,56.344
	C2108.035,1141.903,2164.38,1204.285,2164.38,1204.285"/>
<path fill="#FFFFFF" d="M2164.38,1179.171c-16.742-21.491-40.246-56.586-40.246-79.526c0-22.216,18.03-40.246,40.246-40.246
	s40.246,18.03,40.246,40.246C2204.626,1122.827,2181.444,1157.519,2164.38,1179.171"/>
<circle fill="none" stroke="#F99DA2" stroke-width="7" stroke-miterlimit="10" cx="2164.38" cy="1099.645" r="20.123"/>
<path fill="none" stroke="#F99DA2" stroke-width="7" stroke-linecap="round" stroke-miterlimit="10" d="M2734.334,668.351
	c0,0,56.344-62.381,56.344-104.64c0-31.15-25.194-56.345-56.344-56.345s-56.344,25.194-56.344,56.345
	C2677.99,605.97,2734.334,668.351,2734.334,668.351"/>
<path fill="#FFFFFF" d="M2734.334,643.238c-16.742-21.491-40.246-56.586-40.246-79.526c0-22.216,18.03-40.246,40.246-40.246
	s40.246,18.03,40.246,40.246C2774.58,586.893,2751.399,621.585,2734.334,643.238"/>
<circle fill="none" stroke="#F99DA2" stroke-width="7" stroke-miterlimit="10" cx="2734.334" cy="563.711" r="20.123"/>
<path fill="none" stroke="#F99DA2" stroke-width="7" stroke-linecap="round" stroke-miterlimit="10" d="M2096.65,332.573
	c0,0,56.344-62.381,56.344-104.64c0-31.15-25.194-56.345-56.344-56.345c-31.151,0-56.345,25.194-56.345,56.345
	C2040.305,270.192,2096.65,332.573,2096.65,332.573"/>
<path fill="#FFFFFF" d="M2096.65,307.46c-16.742-21.491-40.246-56.586-40.246-79.526c0-22.216,18.03-40.246,40.246-40.246
	s40.246,18.03,40.246,40.246C2136.896,251.115,2113.714,285.807,2096.65,307.46"/>
<circle fill="none" stroke="#F99DA2" stroke-width="7" stroke-miterlimit="10" cx="2096.65" cy="227.933" r="20.123"/>
<path fill="none" stroke="#F99DA2" stroke-width="5" stroke-miterlimit="10" d="M2018.04,223.247c0.015,2.78-0.359,5.355-3.244,6.54
	c-2.852,1.171-4.933-0.281-6.922-2.284c-12.417-12.502-24.912-24.926-37.328-37.429c-1.331-1.34-2.461-1.805-4.458-1.374
	c-30.872,6.665-61.412,5.477-91.368-4.753c-23.424-7.999-43.995-20.528-58.961-40.701c-18.168-24.49-21.861-51.022-8.859-79
	c8.681-18.68,23.042-32.487,40.692-42.577c42.541-24.319,87.453-27.421,133.752-13.051c22.505,6.985,42.242,18.922,57.464,37.277
	c17.598,21.219,24.161,45.228,16.113,72.142c-5.872,19.639-18.489,34.577-34.694,46.665c-1.642,1.225-2.27,2.461-2.248,4.476
	c0.098,9.061,0.043,18.123,0.042,27.185C2018.021,205.325,2017.99,214.286,2018.04,223.247z"/>
</svg>
